%YAML 1.1
%TAG !u! tag:unity3d.com,2011:
--- !u!1 &198984
GameObject:
  m_ObjectHideFlags: 0
  m_PrefabParentObject: {fileID: 0}
  m_PrefabInternal: {fileID: 100100000}
  serializedVersion: 4
  m_Component:
  - 4: {fileID: 498984}
  - 114: {fileID: 11498984}
  m_Layer: 0
  m_Name: 03
  m_TagString: Untagged
  m_Icon: {fileID: 0}
  m_NavMeshLayer: 0
  m_StaticEditorFlags: 0
  m_IsActive: 1
--- !u!4 &498984
Transform:
  m_ObjectHideFlags: 1
  m_PrefabParentObject: {fileID: 0}
  m_PrefabInternal: {fileID: 100100000}
  m_GameObject: {fileID: 198984}
  m_LocalRotation: {x: 0, y: 0, z: 0, w: 1}
  m_LocalPosition: {x: 0, y: 0, z: 0}
  m_LocalScale: {x: 1, y: 1, z: 1}
  m_Children: []
  m_Father: {fileID: 0}
  m_RootOrder: 0
--- !u!114 &11498984
MonoBehaviour:
  m_ObjectHideFlags: 1
  m_PrefabParentObject: {fileID: 0}
  m_PrefabInternal: {fileID: 100100000}
  m_GameObject: {fileID: 198984}
  m_Enabled: 1
  m_EditorHideFlags: 0
  m_Script: {fileID: 11500000, guid: d546f34a90531a14eaba82a43b05b86b, type: 3}
  m_Name: 
  m_EditorClassIdentifier: 
  version: 3
  materialIdsValid: 1
  needMaterialInstance: 0
  spriteDefinitions:
  - name: s_0000s_0016_6-copia
    boundsData:
    - {x: .5, y: 0, z: 0}
    - {x: 239, y: 356, z: 0}
    untrimmedBoundsData:
    - {x: .5, y: 0, z: 0}
    - {x: 239, y: 356, z: 0}
    texelSize: {x: 1, y: 1}
    positions:
    - {x: -119, y: -178, z: 0}
    - {x: 120, y: -178, z: 0}
    - {x: -119, y: 178, z: 0}
    - {x: 120, y: 178, z: 0}
    normals: []
    tangents: []
    uvs:
    - {x: 4.88281273e-07, y: 4.88281273e-07}
    - {x: .116698727, y: 4.88281273e-07}
    - {x: 4.88281273e-07, y: .173827633}
    - {x: .116698727, y: .173827633}
    normalizedUvs:
    - {x: 0, y: 0}
    - {x: 1, y: 0}
    - {x: 0, y: 1}
    - {x: 1, y: 1}
    indices: 000000000300000001000000020000000300000000000000
    material: {fileID: 2100000, guid: a690a18af3b0c794eb8aa943d1283885, type: 2}
    materialId: 0
    sourceTextureGUID: 01d813434c56fda469845da2d63ea791
    extractRegion: 0
    regionX: 0
    regionY: 0
    regionW: 0
    regionH: 0
    flipped: 0
    complexGeometry: 0
    physicsEngine: 0
    colliderType: 0
    customColliders: []
    colliderVertices: []
    colliderIndicesFwd: 
    colliderIndicesBack: 
    colliderConvex: 0
    colliderSmoothSphereCollisions: 0
    polygonCollider2D: []
    edgeCollider2D: []
    attachPoints: []
  - name: s_0004s_0003_5
    boundsData:
    - {x: .5, y: 0, z: 0}
    - {x: 239, y: 356, z: 0}
    untrimmedBoundsData:
    - {x: .5, y: 0, z: 0}
    - {x: 239, y: 356, z: 0}
    texelSize: {x: 1, y: 1}
    positions:
    - {x: -119, y: -178, z: 0}
    - {x: 120, y: -178, z: 0}
    - {x: -119, y: 178, z: 0}
    - {x: 120, y: 178, z: 0}
    normals: []
    tangents: []
    uvs:
    - {x: 4.88281273e-07, y: .173828617}
    - {x: .116698727, y: .173828617}
    - {x: 4.88281273e-07, y: .347655773}
    - {x: .116698727, y: .347655773}
    normalizedUvs:
    - {x: 0, y: 0}
    - {x: 1, y: 0}
    - {x: 0, y: 1}
    - {x: 1, y: 1}
    indices: 000000000300000001000000020000000300000000000000
    material: {fileID: 2100000, guid: a690a18af3b0c794eb8aa943d1283885, type: 2}
    materialId: 0
    sourceTextureGUID: 087e3dfd79bf2fb4ca4ba6a9ed67c329
    extractRegion: 0
    regionX: 0
    regionY: 0
    regionW: 0
    regionH: 0
    flipped: 0
    complexGeometry: 0
    physicsEngine: 0
    colliderType: 0
    customColliders: []
    colliderVertices: []
    colliderIndicesFwd: 
    colliderIndicesBack: 
    colliderConvex: 0
    colliderSmoothSphereCollisions: 0
    polygonCollider2D: []
    edgeCollider2D: []
    attachPoints: []
  - name: s_0000s_0014_5
    boundsData:
    - {x: .5, y: 0, z: 0}
    - {x: 239, y: 356, z: 0}
    untrimmedBoundsData:
    - {x: .5, y: 0, z: 0}
    - {x: 239, y: 356, z: 0}
    texelSize: {x: 1, y: 1}
    positions:
    - {x: -119, y: -178, z: 0}
    - {x: 120, y: -178, z: 0}
    - {x: -119, y: 178, z: 0}
    - {x: 120, y: 178, z: 0}
    normals: []
    tangents: []
    uvs:
    - {x: 4.88281273e-07, y: .347656727}
    - {x: .116698727, y: .347656727}
    - {x: 4.88281273e-07, y: .521483898}
    - {x: .116698727, y: .521483898}
    normalizedUvs:
    - {x: 0, y: 0}
    - {x: 1, y: 0}
    - {x: 0, y: 1}
    - {x: 1, y: 1}
    indices: 000000000300000001000000020000000300000000000000
    material: {fileID: 2100000, guid: a690a18af3b0c794eb8aa943d1283885, type: 2}
    materialId: 0
    sourceTextureGUID: 0c06d8d280c301b468f99e8b5dc1dc8e
    extractRegion: 0
    regionX: 0
    regionY: 0
    regionW: 0
    regionH: 0
    flipped: 0
    complexGeometry: 0
    physicsEngine: 0
    colliderType: 0
    customColliders: []
    colliderVertices: []
    colliderIndicesFwd: 
    colliderIndicesBack: 
    colliderConvex: 0
    colliderSmoothSphereCollisions: 0
    polygonCollider2D: []
    edgeCollider2D: []
    attachPoints: []
  - name: s_0000s_0020_6-copia
    boundsData:
    - {x: .5, y: 0, z: 0}
    - {x: 239, y: 356, z: 0}
    untrimmedBoundsData:
    - {x: .5, y: 0, z: 0}
    - {x: 239, y: 356, z: 0}
    texelSize: {x: 1, y: 1}
    positions:
    - {x: -119, y: -178, z: 0}
    - {x: 120, y: -178, z: 0}
    - {x: -119, y: 178, z: 0}
    - {x: 120, y: 178, z: 0}
    normals: []
    tangents: []
    uvs:
    - {x: 4.88281273e-07, y: .521484852}
    - {x: .116698727, y: .521484852}
    - {x: 4.88281273e-07, y: .695312023}
    - {x: .116698727, y: .695312023}
    normalizedUvs:
    - {x: 0, y: 0}
    - {x: 1, y: 0}
    - {x: 0, y: 1}
    - {x: 1, y: 1}
    indices: 000000000300000001000000020000000300000000000000
    material: {fileID: 2100000, guid: a690a18af3b0c794eb8aa943d1283885, type: 2}
    materialId: 0
    sourceTextureGUID: 12d5cee298ac4e84e933d7d55aa9f91b
    extractRegion: 0
    regionX: 0
    regionY: 0
    regionW: 0
    regionH: 0
    flipped: 0
    complexGeometry: 0
    physicsEngine: 0
    colliderType: 0
    customColliders: []
    colliderVertices: []
    colliderIndicesFwd: 
    colliderIndicesBack: 
    colliderConvex: 0
    colliderSmoothSphereCollisions: 0
    polygonCollider2D: []
    edgeCollider2D: []
    attachPoints: []
  - name: s_0000s_0021_6
    boundsData:
    - {x: .5, y: 0, z: 0}
    - {x: 239, y: 356, z: 0}
    untrimmedBoundsData:
    - {x: .5, y: 0, z: 0}
    - {x: 239, y: 356, z: 0}
    texelSize: {x: 1, y: 1}
    positions:
    - {x: -119, y: -178, z: 0}
    - {x: 120, y: -178, z: 0}
    - {x: -119, y: 178, z: 0}
    - {x: 120, y: 178, z: 0}
    normals: []
    tangents: []
    uvs:
    - {x: 4.88281273e-07, y: .695312977}
    - {x: .116698727, y: .695312977}
    - {x: 4.88281273e-07, y: .869140148}
    - {x: .116698727, y: .869140148}
    normalizedUvs:
    - {x: 0, y: 0}
    - {x: 1, y: 0}
    - {x: 0, y: 1}
    - {x: 1, y: 1}
    indices: 000000000300000001000000020000000300000000000000
    material: {fileID: 2100000, guid: a690a18af3b0c794eb8aa943d1283885, type: 2}
    materialId: 0
    sourceTextureGUID: 1a6b025695b99454f8b943a31cf368a0
    extractRegion: 0
    regionX: 0
    regionY: 0
    regionW: 0
    regionH: 0
    flipped: 0
    complexGeometry: 0
    physicsEngine: 0
    colliderType: 0
    customColliders: []
    colliderVertices: []
    colliderIndicesFwd: 
    colliderIndicesBack: 
    colliderConvex: 0
    colliderSmoothSphereCollisions: 0
    polygonCollider2D: []
    edgeCollider2D: []
    attachPoints: []
  - name: s_0000s_0012_6-copia
    boundsData:
    - {x: .5, y: 0, z: 0}
    - {x: 239, y: 356, z: 0}
    untrimmedBoundsData:
    - {x: .5, y: 0, z: 0}
    - {x: 239, y: 356, z: 0}
    texelSize: {x: 1, y: 1}
    positions:
    - {x: -119, y: -178, z: 0}
    - {x: 120, y: -178, z: 0}
    - {x: -119, y: 178, z: 0}
    - {x: 120, y: 178, z: 0}
    normals: []
    tangents: []
    uvs:
    - {x: 4.88281273e-07, y: .869141102}
    - {x: 4.88281273e-07, y: .985839367}
    - {x: .173827633, y: .869141102}
    - {x: .173827633, y: .985839367}
    normalizedUvs:
    - {x: 0, y: 0}
    - {x: 0, y: 1}
    - {x: 1, y: 0}
    - {x: 1, y: 1}
    indices: 000000000300000001000000020000000300000000000000
    material: {fileID: 2100000, guid: a690a18af3b0c794eb8aa943d1283885, type: 2}
    materialId: 0
    sourceTextureGUID: 1b85715a25a68424dace5a848ac37e0e
    extractRegion: 0
    regionX: 0
    regionY: 0
    regionW: 0
    regionH: 0
    flipped: 1
    complexGeometry: 0
    physicsEngine: 0
    colliderType: 0
    customColliders: []
    colliderVertices: []
    colliderIndicesFwd: 
    colliderIndicesBack: 
    colliderConvex: 0
    colliderSmoothSphereCollisions: 0
    polygonCollider2D: []
    edgeCollider2D: []
    attachPoints: []
  - name: s_0005s_0002_6
    boundsData:
    - {x: .5, y: 0, z: 0}
    - {x: 239, y: 356, z: 0}
    untrimmedBoundsData:
    - {x: .5, y: 0, z: 0}
    - {x: 239, y: 356, z: 0}
    texelSize: {x: 1, y: 1}
    positions:
    - {x: -119, y: -178, z: 0}
    - {x: 120, y: -178, z: 0}
    - {x: -119, y: 178, z: 0}
    - {x: 120, y: 178, z: 0}
    normals: []
    tangents: []
    uvs:
    - {x: .11669971, y: 4.88281273e-07}
    - {x: .233397946, y: 4.88281273e-07}
    - {x: .11669971, y: .173827633}
    - {x: .233397946, y: .173827633}
    normalizedUvs:
    - {x: 0, y: 0}
    - {x: 1, y: 0}
    - {x: 0, y: 1}
    - {x: 1, y: 1}
    indices: 000000000300000001000000020000000300000000000000
    material: {fileID: 2100000, guid: a690a18af3b0c794eb8aa943d1283885, type: 2}
    materialId: 0
    sourceTextureGUID: 285fbe42285ba65438ecf5fb3c3209f1
    extractRegion: 0
    regionX: 0
    regionY: 0
    regionW: 0
    regionH: 0
    flipped: 0
    complexGeometry: 0
    physicsEngine: 0
    colliderType: 0
    customColliders: []
    colliderVertices: []
    colliderIndicesFwd: 
    colliderIndicesBack: 
    colliderConvex: 0
    colliderSmoothSphereCollisions: 0
    polygonCollider2D: []
    edgeCollider2D: []
    attachPoints: []
  - name: s_0000s_0013_6
    boundsData:
    - {x: .5, y: 0, z: 0}
    - {x: 239, y: 356, z: 0}
    untrimmedBoundsData:
    - {x: .5, y: 0, z: 0}
    - {x: 239, y: 356, z: 0}
    texelSize: {x: 1, y: 1}
    positions:
    - {x: -119, y: -178, z: 0}
    - {x: 120, y: -178, z: 0}
    - {x: -119, y: 178, z: 0}
    - {x: 120, y: 178, z: 0}
    normals: []
    tangents: []
    uvs:
    - {x: .11669971, y: .173828617}
    - {x: .233397946, y: .173828617}
    - {x: .11669971, y: .347655773}
    - {x: .233397946, y: .347655773}
    normalizedUvs:
    - {x: 0, y: 0}
    - {x: 1, y: 0}
    - {x: 0, y: 1}
    - {x: 1, y: 1}
    indices: 000000000300000001000000020000000300000000000000
    material: {fileID: 2100000, guid: a690a18af3b0c794eb8aa943d1283885, type: 2}
    materialId: 0
    sourceTextureGUID: 3affaeee828911f4a96994711e055892
    extractRegion: 0
    regionX: 0
    regionY: 0
    regionW: 0
    regionH: 0
    flipped: 0
    complexGeometry: 0
    physicsEngine: 0
    colliderType: 0
    customColliders: []
    colliderVertices: []
    colliderIndicesFwd: 
    colliderIndicesBack: 
    colliderConvex: 0
    colliderSmoothSphereCollisions: 0
    polygonCollider2D: []
    edgeCollider2D: []
    attachPoints: []
  - name: s_0000s_0011_6-copia-2
    boundsData:
    - {x: .5, y: 0, z: 0}
    - {x: 239, y: 356, z: 0}
    untrimmedBoundsData:
    - {x: .5, y: 0, z: 0}
    - {x: 239, y: 356, z: 0}
    texelSize: {x: 1, y: 1}
    positions:
    - {x: -119, y: -178, z: 0}
    - {x: 120, y: -178, z: 0}
    - {x: -119, y: 178, z: 0}
    - {x: 120, y: 178, z: 0}
    normals: []
    tangents: []
    uvs:
    - {x: .11669971, y: .347656727}
    - {x: .233397946, y: .347656727}
    - {x: .11669971, y: .521483898}
    - {x: .233397946, y: .521483898}
    normalizedUvs:
    - {x: 0, y: 0}
    - {x: 1, y: 0}
    - {x: 0, y: 1}
    - {x: 1, y: 1}
    indices: 000000000300000001000000020000000300000000000000
    material: {fileID: 2100000, guid: a690a18af3b0c794eb8aa943d1283885, type: 2}
    materialId: 0
    sourceTextureGUID: 42fbd85ca92803749b23330c51d53011
    extractRegion: 0
    regionX: 0
    regionY: 0
    regionW: 0
    regionH: 0
    flipped: 0
    complexGeometry: 0
    physicsEngine: 0
    colliderType: 0
    customColliders: []
    colliderVertices: []
    colliderIndicesFwd: 
    colliderIndicesBack: 
    colliderConvex: 0
    colliderSmoothSphereCollisions: 0
    polygonCollider2D: []
    edgeCollider2D: []
    attachPoints: []
  - name: s_0000s_0022_5
    boundsData:
    - {x: .5, y: 0, z: 0}
    - {x: 239, y: 356, z: 0}
    untrimmedBoundsData:
    - {x: .5, y: 0, z: 0}
    - {x: 239, y: 356, z: 0}
    texelSize: {x: 1, y: 1}
    positions:
    - {x: -119, y: -178, z: 0}
    - {x: 120, y: -178, z: 0}
    - {x: -119, y: 178, z: 0}
    - {x: 120, y: 178, z: 0}
    normals: []
    tangents: []
    uvs:
    - {x: .11669971, y: .521484852}
    - {x: .233397946, y: .521484852}
    - {x: .11669971, y: .695312023}
    - {x: .233397946, y: .695312023}
    normalizedUvs:
    - {x: 0, y: 0}
    - {x: 1, y: 0}
    - {x: 0, y: 1}
    - {x: 1, y: 1}
    indices: 000000000300000001000000020000000300000000000000
    material: {fileID: 2100000, guid: a690a18af3b0c794eb8aa943d1283885, type: 2}
    materialId: 0
    sourceTextureGUID: 4e2d1f3e5a129c24781df9d0907c4e58
    extractRegion: 0
    regionX: 0
    regionY: 0
    regionW: 0
    regionH: 0
    flipped: 0
    complexGeometry: 0
    physicsEngine: 0
    colliderType: 0
    customColliders: []
    colliderVertices: []
    colliderIndicesFwd: 
    colliderIndicesBack: 
    colliderConvex: 0
    colliderSmoothSphereCollisions: 0
    polygonCollider2D: []
    edgeCollider2D: []
    attachPoints: []
  - name: s_0006s_0003_5
    boundsData:
    - {x: .5, y: 0, z: 0}
    - {x: 239, y: 356, z: 0}
    untrimmedBoundsData:
    - {x: .5, y: 0, z: 0}
    - {x: 239, y: 356, z: 0}
    texelSize: {x: 1, y: 1}
    positions:
    - {x: -119, y: -178, z: 0}
    - {x: 120, y: -178, z: 0}
    - {x: -119, y: 178, z: 0}
    - {x: 120, y: 178, z: 0}
    normals: []
    tangents: []
    uvs:
    - {x: .11669971, y: .695312977}
    - {x: .233397946, y: .695312977}
    - {x: .11669971, y: .869140148}
    - {x: .233397946, y: .869140148}
    normalizedUvs:
    - {x: 0, y: 0}
    - {x: 1, y: 0}
    - {x: 0, y: 1}
    - {x: 1, y: 1}
    indices: 000000000300000001000000020000000300000000000000
    material: {fileID: 2100000, guid: a690a18af3b0c794eb8aa943d1283885, type: 2}
    materialId: 0
    sourceTextureGUID: 5d27a47a066f330438e6c9d7beab0bd7
    extractRegion: 0
    regionX: 0
    regionY: 0
    regionW: 0
    regionH: 0
    flipped: 0
    complexGeometry: 0
    physicsEngine: 0
    colliderType: 0
    customColliders: []
    colliderVertices: []
    colliderIndicesFwd: 
    colliderIndicesBack: 
    colliderConvex: 0
    colliderSmoothSphereCollisions: 0
    polygonCollider2D: []
    edgeCollider2D: []
    attachPoints: []
  - name: s_0006s_0000_6-copia-2
    boundsData:
    - {x: .5, y: 0, z: 0}
    - {x: 239, y: 356, z: 0}
    untrimmedBoundsData:
    - {x: .5, y: 0, z: 0}
    - {x: 239, y: 356, z: 0}
    texelSize: {x: 1, y: 1}
    positions:
    - {x: -119, y: -178, z: 0}
    - {x: 120, y: -178, z: 0}
    - {x: -119, y: 178, z: 0}
    - {x: 120, y: 178, z: 0}
    normals: []
    tangents: []
    uvs:
    - {x: .173828617, y: .869141102}
    - {x: .173828617, y: .985839367}
    - {x: .347655773, y: .869141102}
    - {x: .347655773, y: .985839367}
    normalizedUvs:
    - {x: 0, y: 0}
    - {x: 0, y: 1}
    - {x: 1, y: 0}
    - {x: 1, y: 1}
    indices: 000000000300000001000000020000000300000000000000
    material: {fileID: 2100000, guid: a690a18af3b0c794eb8aa943d1283885, type: 2}
    materialId: 0
    sourceTextureGUID: 61306ebe62d37504a94f75856184c022
    extractRegion: 0
    regionX: 0
    regionY: 0
    regionW: 0
    regionH: 0
    flipped: 1
    complexGeometry: 0
    physicsEngine: 0
    colliderType: 0
    customColliders: []
    colliderVertices: []
    colliderIndicesFwd: 
    colliderIndicesBack: 
    colliderConvex: 0
    colliderSmoothSphereCollisions: 0
    polygonCollider2D: []
    edgeCollider2D: []
    attachPoints: []
  - name: s_0004s_0000_6-copia-2
    boundsData:
    - {x: .5, y: 0, z: 0}
    - {x: 239, y: 356, z: 0}
    untrimmedBoundsData:
    - {x: .5, y: 0, z: 0}
    - {x: 239, y: 356, z: 0}
    texelSize: {x: 1, y: 1}
    positions:
    - {x: -119, y: -178, z: 0}
    - {x: 120, y: -178, z: 0}
    - {x: -119, y: 178, z: 0}
    - {x: 120, y: 178, z: 0}
    normals: []
    tangents: []
    uvs:
    - {x: .347656727, y: 4.88281273e-07}
    - {x: .347656727, y: .116698727}
    - {x: .521483898, y: 4.88281273e-07}
    - {x: .521483898, y: .116698727}
    normalizedUvs:
    - {x: 0, y: 0}
    - {x: 0, y: 1}
    - {x: 1, y: 0}
    - {x: 1, y: 1}
    indices: 000000000300000001000000020000000300000000000000
    material: {fileID: 2100000, guid: a690a18af3b0c794eb8aa943d1283885, type: 2}
    materialId: 0
    sourceTextureGUID: 6933d88f95ddb0c4ca3b6ba75d8fecc9
    extractRegion: 0
    regionX: 0
    regionY: 0
    regionW: 0
    regionH: 0
    flipped: 1
    complexGeometry: 0
    physicsEngine: 0
    colliderType: 0
    customColliders: []
    colliderVertices: []
    colliderIndicesFwd: 
    colliderIndicesBack: 
    colliderConvex: 0
    colliderSmoothSphereCollisions: 0
    polygonCollider2D: []
    edgeCollider2D: []
    attachPoints: []
  - name: s_0000s_0018_5
    boundsData:
    - {x: .5, y: 0, z: 0}
    - {x: 239, y: 356, z: 0}
    untrimmedBoundsData:
    - {x: .5, y: 0, z: 0}
    - {x: 239, y: 356, z: 0}
    texelSize: {x: 1, y: 1}
    positions:
    - {x: -119, y: -178, z: 0}
    - {x: 120, y: -178, z: 0}
    - {x: -119, y: 178, z: 0}
    - {x: 120, y: 178, z: 0}
    normals: []
    tangents: []
    uvs:
    - {x: .521484852, y: 4.88281273e-07}
    - {x: .521484852, y: .116698727}
    - {x: .695312023, y: 4.88281273e-07}
    - {x: .695312023, y: .116698727}
    normalizedUvs:
    - {x: 0, y: 0}
    - {x: 0, y: 1}
    - {x: 1, y: 0}
    - {x: 1, y: 1}
    indices: 000000000300000001000000020000000300000000000000
    material: {fileID: 2100000, guid: a690a18af3b0c794eb8aa943d1283885, type: 2}
    materialId: 0
    sourceTextureGUID: 898f030981db90149ae5191912ee7529
    extractRegion: 0
    regionX: 0
    regionY: 0
    regionW: 0
    regionH: 0
    flipped: 1
    complexGeometry: 0
    physicsEngine: 0
    colliderType: 0
    customColliders: []
    colliderVertices: []
    colliderIndicesFwd: 
    colliderIndicesBack: 
    colliderConvex: 0
    colliderSmoothSphereCollisions: 0
    polygonCollider2D: []
    edgeCollider2D: []
    attachPoints: []
  - name: s_0000s_0019_6-copia-2
    boundsData:
    - {x: .5, y: 0, z: 0}
    - {x: 239, y: 356, z: 0}
    untrimmedBoundsData:
    - {x: .5, y: 0, z: 0}
    - {x: 239, y: 356, z: 0}
    texelSize: {x: 1, y: 1}
    positions:
    - {x: -119, y: -178, z: 0}
    - {x: 120, y: -178, z: 0}
    - {x: -119, y: 178, z: 0}
    - {x: 120, y: 178, z: 0}
    normals: []
    tangents: []
    uvs:
    - {x: .695312977, y: 4.88281273e-07}
    - {x: .695312977, y: .116698727}
    - {x: .869140148, y: 4.88281273e-07}
    - {x: .869140148, y: .116698727}
    normalizedUvs:
    - {x: 0, y: 0}
    - {x: 0, y: 1}
    - {x: 1, y: 0}
    - {x: 1, y: 1}
    indices: 000000000300000001000000020000000300000000000000
    material: {fileID: 2100000, guid: a690a18af3b0c794eb8aa943d1283885, type: 2}
    materialId: 0
    sourceTextureGUID: 92bfa864d1b7e23438fcf0a0ae172390
    extractRegion: 0
    regionX: 0
    regionY: 0
    regionW: 0
    regionH: 0
    flipped: 1
    complexGeometry: 0
    physicsEngine: 0
    colliderType: 0
    customColliders: []
    colliderVertices: []
    colliderIndicesFwd: 
    colliderIndicesBack: 
    colliderConvex: 0
    colliderSmoothSphereCollisions: 0
    polygonCollider2D: []
    edgeCollider2D: []
    attachPoints: []
  - name: s_0005s_0000_6-copia-2
    boundsData:
    - {x: .5, y: 0, z: 0}
    - {x: 239, y: 356, z: 0}
    untrimmedBoundsData:
    - {x: .5, y: 0, z: 0}
    - {x: 239, y: 356, z: 0}
    texelSize: {x: 1, y: 1}
    positions:
    - {x: -119, y: -178, z: 0}
    - {x: 120, y: -178, z: 0}
    - {x: -119, y: 178, z: 0}
    - {x: 120, y: 178, z: 0}
    normals: []
    tangents: []
    uvs:
    - {x: .869141102, y: 4.88281273e-07}
    - {x: .985839367, y: 4.88281273e-07}
    - {x: .869141102, y: .173827633}
    - {x: .985839367, y: .173827633}
    normalizedUvs:
    - {x: 0, y: 0}
    - {x: 1, y: 0}
    - {x: 0, y: 1}
    - {x: 1, y: 1}
    indices: 000000000300000001000000020000000300000000000000
    material: {fileID: 2100000, guid: a690a18af3b0c794eb8aa943d1283885, type: 2}
    materialId: 0
    sourceTextureGUID: 93c4bd5f2367a0a44b8a4d96a04ba599
    extractRegion: 0
    regionX: 0
    regionY: 0
    regionW: 0
    regionH: 0
    flipped: 0
    complexGeometry: 0
    physicsEngine: 0
    colliderType: 0
    customColliders: []
    colliderVertices: []
    colliderIndicesFwd: 
    colliderIndicesBack: 
    colliderConvex: 0
    colliderSmoothSphereCollisions: 0
    polygonCollider2D: []
    edgeCollider2D: []
    attachPoints: []
  - name: s_0006s_0001_6-copia
    boundsData:
    - {x: .5, y: 0, z: 0}
    - {x: 239, y: 356, z: 0}
    untrimmedBoundsData:
    - {x: .5, y: 0, z: 0}
    - {x: 239, y: 356, z: 0}
    texelSize: {x: 1, y: 1}
    positions:
    - {x: -119, y: -178, z: 0}
    - {x: 120, y: -178, z: 0}
    - {x: -119, y: 178, z: 0}
    - {x: 120, y: 178, z: 0}
    normals: []
    tangents: []
    uvs:
    - {x: .347656727, y: .11669971}
    - {x: .347656727, y: .233397946}
    - {x: .521483898, y: .11669971}
    - {x: .521483898, y: .233397946}
    normalizedUvs:
    - {x: 0, y: 0}
    - {x: 0, y: 1}
    - {x: 1, y: 0}
    - {x: 1, y: 1}
    indices: 000000000300000001000000020000000300000000000000
    material: {fileID: 2100000, guid: a690a18af3b0c794eb8aa943d1283885, type: 2}
    materialId: 0
    sourceTextureGUID: 980a02539e014934fa99dccee454f512
    extractRegion: 0
    regionX: 0
    regionY: 0
    regionW: 0
    regionH: 0
    flipped: 1
    complexGeometry: 0
    physicsEngine: 0
    colliderType: 0
    customColliders: []
    colliderVertices: []
    colliderIndicesFwd: 
    colliderIndicesBack: 
    colliderConvex: 0
    colliderSmoothSphereCollisions: 0
    polygonCollider2D: []
    edgeCollider2D: []
    attachPoints: []
  - name: s_0004s_0001_6-copia
    boundsData:
    - {x: .5, y: 0, z: 0}
    - {x: 239, y: 356, z: 0}
    untrimmedBoundsData:
    - {x: .5, y: 0, z: 0}
    - {x: 239, y: 356, z: 0}
    texelSize: {x: 1, y: 1}
    positions:
    - {x: -119, y: -178, z: 0}
    - {x: 120, y: -178, z: 0}
    - {x: -119, y: 178, z: 0}
    - {x: 120, y: 178, z: 0}
    normals: []
    tangents: []
    uvs:
    - {x: .521484852, y: .11669971}
    - {x: .521484852, y: .233397946}
    - {x: .695312023, y: .11669971}
    - {x: .695312023, y: .233397946}
    normalizedUvs:
    - {x: 0, y: 0}
    - {x: 0, y: 1}
    - {x: 1, y: 0}
    - {x: 1, y: 1}
    indices: 000000000300000001000000020000000300000000000000
    material: {fileID: 2100000, guid: a690a18af3b0c794eb8aa943d1283885, type: 2}
    materialId: 0
    sourceTextureGUID: a828fd29e30d6814aacd34c44768f8a3
    extractRegion: 0
    regionX: 0
    regionY: 0
    regionW: 0
    regionH: 0
    flipped: 1
    complexGeometry: 0
    physicsEngine: 0
    colliderType: 0
    customColliders: []
    colliderVertices: []
    colliderIndicesFwd: 
    colliderIndicesBack: 
    colliderConvex: 0
    colliderSmoothSphereCollisions: 0
    polygonCollider2D: []
    edgeCollider2D: []
    attachPoints: []
  - name: s_0000s_0017_6
    boundsData:
    - {x: .5, y: 0, z: 0}
    - {x: 239, y: 356, z: 0}
    untrimmedBoundsData:
    - {x: .5, y: 0, z: 0}
    - {x: 239, y: 356, z: 0}
    texelSize: {x: 1, y: 1}
    positions:
    - {x: -119, y: -178, z: 0}
    - {x: 120, y: -178, z: 0}
    - {x: -119, y: 178, z: 0}
    - {x: 120, y: 178, z: 0}
    normals: []
    tangents: []
    uvs:
    - {x: .695312977, y: .11669971}
    - {x: .695312977, y: .233397946}
    - {x: .869140148, y: .11669971}
    - {x: .869140148, y: .233397946}
    normalizedUvs:
    - {x: 0, y: 0}
    - {x: 0, y: 1}
    - {x: 1, y: 0}
    - {x: 1, y: 1}
    indices: 000000000300000001000000020000000300000000000000
    material: {fileID: 2100000, guid: a690a18af3b0c794eb8aa943d1283885, type: 2}
    materialId: 0
    sourceTextureGUID: c4cb33ded7e711245aae72660bde37b3
    extractRegion: 0
    regionX: 0
    regionY: 0
    regionW: 0
    regionH: 0
    flipped: 1
    complexGeometry: 0
    physicsEngine: 0
    colliderType: 0
    customColliders: []
    colliderVertices: []
    colliderIndicesFwd: 
    colliderIndicesBack: 
    colliderConvex: 0
    colliderSmoothSphereCollisions: 0
    polygonCollider2D: []
    edgeCollider2D: []
    attachPoints: []
  - name: s_0005s_0003_5
    boundsData:
    - {x: .5, y: 0, z: 0}
    - {x: 239, y: 356, z: 0}
    untrimmedBoundsData:
    - {x: .5, y: 0, z: 0}
    - {x: 239, y: 356, z: 0}
    texelSize: {x: 1, y: 1}
    positions:
    - {x: -119, y: -178, z: 0}
    - {x: 120, y: -178, z: 0}
    - {x: -119, y: 178, z: 0}
    - {x: 120, y: 178, z: 0}
    normals: []
    tangents: []
    uvs:
    - {x: .869141102, y: .173828617}
    - {x: .985839367, y: .173828617}
    - {x: .869141102, y: .347655773}
    - {x: .985839367, y: .347655773}
    normalizedUvs:
    - {x: 0, y: 0}
    - {x: 1, y: 0}
    - {x: 0, y: 1}
    - {x: 1, y: 1}
    indices: 000000000300000001000000020000000300000000000000
    material: {fileID: 2100000, guid: a690a18af3b0c794eb8aa943d1283885, type: 2}
    materialId: 0
    sourceTextureGUID: d05dd5a71aeba034eaf0cd8b3ba19783
    extractRegion: 0
    regionX: 0
    regionY: 0
    regionW: 0
    regionH: 0
    flipped: 0
    complexGeometry: 0
    physicsEngine: 0
    colliderType: 0
    customColliders: []
    colliderVertices: []
    colliderIndicesFwd: 
    colliderIndicesBack: 
    colliderConvex: 0
    colliderSmoothSphereCollisions: 0
    polygonCollider2D: []
    edgeCollider2D: []
    attachPoints: []
  - name: s_0004s_0002_6
    boundsData:
    - {x: .5, y: 0, z: 0}
    - {x: 239, y: 356, z: 0}
    untrimmedBoundsData:
    - {x: .5, y: 0, z: 0}
    - {x: 239, y: 356, z: 0}
    texelSize: {x: 1, y: 1}
    positions:
    - {x: -119, y: -178, z: 0}
    - {x: 120, y: -178, z: 0}
    - {x: -119, y: 178, z: 0}
    - {x: 120, y: 178, z: 0}
    normals: []
    tangents: []
    uvs:
    - {x: .233398929, y: .347656727}
    - {x: .350097179, y: .347656727}
    - {x: .233398929, y: .521483898}
    - {x: .350097179, y: .521483898}
    normalizedUvs:
    - {x: 0, y: 0}
    - {x: 1, y: 0}
    - {x: 0, y: 1}
    - {x: 1, y: 1}
    indices: 000000000300000001000000020000000300000000000000
    material: {fileID: 2100000, guid: a690a18af3b0c794eb8aa943d1283885, type: 2}
    materialId: 0
    sourceTextureGUID: f78b170908c4ba54a95378a953d51fe2
    extractRegion: 0
    regionX: 0
    regionY: 0
    regionW: 0
    regionH: 0
    flipped: 0
    complexGeometry: 0
    physicsEngine: 0
    colliderType: 0
    customColliders: []
    colliderVertices: []
    colliderIndicesFwd: 
    colliderIndicesBack: 
    colliderConvex: 0
    colliderSmoothSphereCollisions: 0
    polygonCollider2D: []
    edgeCollider2D: []
    attachPoints: []
  - name: s_0006s_0002_6
    boundsData:
    - {x: .5, y: 0, z: 0}
    - {x: 239, y: 356, z: 0}
    untrimmedBoundsData:
    - {x: .5, y: 0, z: 0}
    - {x: 239, y: 356, z: 0}
    texelSize: {x: 1, y: 1}
    positions:
    - {x: -119, y: -178, z: 0}
    - {x: 120, y: -178, z: 0}
    - {x: -119, y: 178, z: 0}
    - {x: 120, y: 178, z: 0}
    normals: []
    tangents: []
    uvs:
    - {x: .233398929, y: .521484852}
    - {x: .350097179, y: .521484852}
    - {x: .233398929, y: .695312023}
    - {x: .350097179, y: .695312023}
    normalizedUvs:
    - {x: 0, y: 0}
    - {x: 1, y: 0}
    - {x: 0, y: 1}
    - {x: 1, y: 1}
    indices: 000000000300000001000000020000000300000000000000
    material: {fileID: 2100000, guid: a690a18af3b0c794eb8aa943d1283885, type: 2}
    materialId: 0
    sourceTextureGUID: f9e8e003ef40a9745ae28b459b7aa890
    extractRegion: 0
    regionX: 0
    regionY: 0
    regionW: 0
    regionH: 0
    flipped: 0
    complexGeometry: 0
    physicsEngine: 0
    colliderType: 0
    customColliders: []
    colliderVertices: []
    colliderIndicesFwd: 
    colliderIndicesBack: 
    colliderConvex: 0
    colliderSmoothSphereCollisions: 0
    polygonCollider2D: []
    edgeCollider2D: []
    attachPoints: []
  - name: s_0005s_0001_6-copia
    boundsData:
    - {x: .5, y: 0, z: 0}
    - {x: 239, y: 356, z: 0}
    untrimmedBoundsData:
    - {x: .5, y: 0, z: 0}
    - {x: 239, y: 356, z: 0}
    texelSize: {x: 1, y: 1}
    positions:
    - {x: -119, y: -178, z: 0}
    - {x: 120, y: -178, z: 0}
    - {x: -119, y: 178, z: 0}
    - {x: 120, y: 178, z: 0}
    normals: []
    tangents: []
    uvs:
    - {x: .233398929, y: .695312977}
    - {x: .350097179, y: .695312977}
    - {x: .233398929, y: .869140148}
    - {x: .350097179, y: .869140148}
    normalizedUvs:
    - {x: 0, y: 0}
    - {x: 1, y: 0}
    - {x: 0, y: 1}
    - {x: 1, y: 1}
    indices: 000000000300000001000000020000000300000000000000
    material: {fileID: 2100000, guid: a690a18af3b0c794eb8aa943d1283885, type: 2}
    materialId: 0
    sourceTextureGUID: fa9df9ac980df954e9311315dc3e41b6
    extractRegion: 0
    regionX: 0
    regionY: 0
    regionW: 0
    regionH: 0
    flipped: 0
    complexGeometry: 0
    physicsEngine: 0
    colliderType: 0
    customColliders: []
    colliderVertices: []
    colliderIndicesFwd: 
    colliderIndicesBack: 
    colliderConvex: 0
    colliderSmoothSphereCollisions: 0
    polygonCollider2D: []
    edgeCollider2D: []
    attachPoints: []
  - name: s_0000s_0015_6-copia-2
    boundsData:
    - {x: .5, y: 0, z: 0}
    - {x: 239, y: 356, z: 0}
    untrimmedBoundsData:
    - {x: .5, y: 0, z: 0}
    - {x: 239, y: 356, z: 0}
    texelSize: {x: 1, y: 1}
    positions:
    - {x: -119, y: -178, z: 0}
    - {x: 120, y: -178, z: 0}
    - {x: -119, y: 178, z: 0}
    - {x: 120, y: 178, z: 0}
    normals: []
    tangents: []
    uvs:
    - {x: .347656727, y: .869141102}
    - {x: .347656727, y: .985839367}
    - {x: .521483898, y: .869141102}
    - {x: .521483898, y: .985839367}
    normalizedUvs:
    - {x: 0, y: 0}
    - {x: 0, y: 1}
    - {x: 1, y: 0}
    - {x: 1, y: 1}
    indices: 000000000300000001000000020000000300000000000000
    material: {fileID: 2100000, guid: a690a18af3b0c794eb8aa943d1283885, type: 2}
    materialId: 0
    sourceTextureGUID: ffb0a184e30d6bb47a43faa8102879a9
    extractRegion: 0
    regionX: 0
    regionY: 0
    regionW: 0
    regionH: 0
    flipped: 1
    complexGeometry: 0
    physicsEngine: 0
    colliderType: 0
    customColliders: []
    colliderVertices: []
    colliderIndicesFwd: 
    colliderIndicesBack: 
    colliderConvex: 0
    colliderSmoothSphereCollisions: 0
    polygonCollider2D: []
    edgeCollider2D: []
    attachPoints: []
  premultipliedAlpha: 0
  material: {fileID: 0}
  materials:
  - {fileID: 2100000, guid: a690a18af3b0c794eb8aa943d1283885, type: 2}
  textures:
  - {fileID: 2800000, guid: 0a55c1649d5f7ee4c9c1a5b8f7245066, type: 3}
  pngTextures: []
  materialPngTextureId: 00000000
  textureFilterMode: 0
  textureMipMaps: 0
  allowMultipleAtlases: 0
  spriteCollectionGUID: ea78269884ee13148be8febb4a3a0b4a
  spriteCollectionName: 03
  assetName: 
  loadable: 0
  invOrthoSize: 2
  halfTargetHeight: .5
  buildKey: 1249111772
  dataGuid: 341739ebb1b6b414383cee36605fc897
  managedSpriteCollection: 0
  hasPlatformData: 0
  spriteCollectionPlatforms: []
  spriteCollectionPlatformGUIDs: []
--- !u!1001 &100100000
Prefab:
  m_ObjectHideFlags: 1
  serializedVersion: 2
  m_Modification:
    m_TransformParent: {fileID: 0}
    m_Modifications: []
    m_RemovedComponents: []
  m_ParentPrefab: {fileID: 0}
  m_RootGameObject: {fileID: 198984}
  m_IsPrefabParent: 1
  m_IsExploded: 1
