%YAML 1.1
%TAG !u! tag:unity3d.com,2011:
--- !u!1 &111744
GameObject:
  m_ObjectHideFlags: 0
  m_PrefabParentObject: {fileID: 0}
  m_PrefabInternal: {fileID: 100100000}
  serializedVersion: 4
  m_Component:
  - 4: {fileID: 411744}
  - 114: {fileID: 11411744}
  m_Layer: 0
  m_Name: Main
  m_TagString: Untagged
  m_Icon: {fileID: 0}
  m_NavMeshLayer: 0
  m_StaticEditorFlags: 0
  m_IsActive: 1
--- !u!4 &411744
Transform:
  m_ObjectHideFlags: 1
  m_PrefabParentObject: {fileID: 0}
  m_PrefabInternal: {fileID: 100100000}
  m_GameObject: {fileID: 111744}
  m_LocalRotation: {x: 0, y: 0, z: 0, w: 1}
  m_LocalPosition: {x: 0, y: 0, z: 0}
  m_LocalScale: {x: 1, y: 1, z: 1}
  m_Children: []
  m_Father: {fileID: 0}
  m_RootOrder: 0
--- !u!114 &11411744
MonoBehaviour:
  m_ObjectHideFlags: 1
  m_PrefabParentObject: {fileID: 0}
  m_PrefabInternal: {fileID: 100100000}
  m_GameObject: {fileID: 111744}
  m_Enabled: 1
  m_EditorHideFlags: 0
  m_Script: {fileID: 11500000, guid: d546f34a90531a14eaba82a43b05b86b, type: 3}
  m_Name: 
  m_EditorClassIdentifier: 
  version: 3
  materialIdsValid: 1
  needMaterialInstance: 0
  spriteDefinitions:
  - name: options
    boundsData:
    - {x: .5, y: -.5, z: 0}
    - {x: 299, y: 53, z: 0}
    untrimmedBoundsData:
    - {x: .5, y: -.5, z: 0}
    - {x: 299, y: 53, z: 0}
    texelSize: {x: 1, y: 1}
    positions:
    - {x: -149, y: -27, z: 0}
    - {x: 150, y: -27, z: 0}
    - {x: -149, y: 26, z: 0}
    - {x: 150, y: 26, z: 0}
    normals: []
    tangents: []
    uvs:
    - {x: .00195507822, y: .635743141}
    - {x: .00195507822, y: .927733421}
    - {x: .105466798, y: .635743141}
    - {x: .105466798, y: .927733421}
    normalizedUvs:
    - {x: 0, y: 0}
    - {x: 0, y: 1}
    - {x: 1, y: 0}
    - {x: 1, y: 1}
    indices: 000000000300000001000000020000000300000000000000
    material: {fileID: 2100000, guid: b58bc4dd784a479448b2faa51de8189a, type: 2}
    materialId: 0
    sourceTextureGUID: 002b4b6931a711142bac95d1a0cadcc5
    extractRegion: 0
    regionX: 0
    regionY: 0
    regionW: 0
    regionH: 0
    flipped: 1
    complexGeometry: 0
    physicsEngine: 0
    colliderType: 2
    customColliders: []
    colliderVertices:
    - {x: .5, y: -.5, z: 0}
    - {x: 149.5, y: 26.5, z: .100000001}
    colliderIndicesFwd: 
    colliderIndicesBack: 
    colliderConvex: 0
    colliderSmoothSphereCollisions: 0
    polygonCollider2D: []
    edgeCollider2D: []
    attachPoints: []
  - name: playPress
    boundsData:
    - {x: 0, y: -.5, z: 0}
    - {x: 166, y: 53, z: 0}
    untrimmedBoundsData:
    - {x: 0, y: -.5, z: 0}
    - {x: 166, y: 53, z: 0}
    texelSize: {x: 1, y: 1}
    positions:
    - {x: -83, y: -27, z: 0}
    - {x: 83, y: -27, z: 0}
    - {x: -83, y: 26, z: 0}
    - {x: 83, y: 26, z: 0}
    normals: []
    tangents: []
    uvs:
    - {x: .109376952, y: .635743141}
    - {x: .109376952, y: .797850609}
    - {x: .212888673, y: .635743141}
    - {x: .212888673, y: .797850609}
    normalizedUvs:
    - {x: 0, y: 0}
    - {x: 0, y: 1}
    - {x: 1, y: 0}
    - {x: 1, y: 1}
    indices: 000000000300000001000000020000000300000000000000
    material: {fileID: 2100000, guid: b58bc4dd784a479448b2faa51de8189a, type: 2}
    materialId: 0
    sourceTextureGUID: 02881ea00e9fc2f4e8bd126d893be12c
    extractRegion: 0
    regionX: 0
    regionY: 0
    regionW: 0
    regionH: 0
    flipped: 1
    complexGeometry: 0
    physicsEngine: 0
    colliderType: 2
    customColliders: []
    colliderVertices:
    - {x: 0, y: -.5, z: 0}
    - {x: 83, y: 26.5, z: .100000001}
    colliderIndicesFwd: 
    colliderIndicesBack: 
    colliderConvex: 0
    colliderSmoothSphereCollisions: 0
    polygonCollider2D: []
    edgeCollider2D: []
    attachPoints: []
  - name: play
    boundsData:
    - {x: 0, y: -.5, z: 0}
    - {x: 166, y: 53, z: 0}
    untrimmedBoundsData:
    - {x: 0, y: -.5, z: 0}
    - {x: 166, y: 53, z: 0}
    texelSize: {x: 1, y: 1}
    positions:
    - {x: -83, y: -27, z: 0}
    - {x: 83, y: -27, z: 0}
    - {x: -83, y: 26, z: 0}
    - {x: 83, y: 26, z: 0}
    normals: []
    tangents: []
    uvs:
    - {x: .109376952, y: .799805641}
    - {x: .433591783, y: .799805641}
    - {x: .109376952, y: .851561546}
    - {x: .433591783, y: .851561546}
    normalizedUvs:
    - {x: 0, y: 0}
    - {x: 1, y: 0}
    - {x: 0, y: 1}
    - {x: 1, y: 1}
    indices: 000000000300000001000000020000000300000000000000
    material: {fileID: 2100000, guid: b58bc4dd784a479448b2faa51de8189a, type: 2}
    materialId: 0
    sourceTextureGUID: 10be77c1b60716944b3c76a594957e62
    extractRegion: 0
    regionX: 0
    regionY: 0
    regionW: 0
    regionH: 0
    flipped: 0
    complexGeometry: 0
    physicsEngine: 0
    colliderType: 2
    customColliders: []
    colliderVertices:
    - {x: 0, y: -.5, z: 0}
    - {x: 83, y: 26.5, z: .100000001}
    colliderIndicesFwd: 
    colliderIndicesBack: 
    colliderConvex: 0
    colliderSmoothSphereCollisions: 0
    polygonCollider2D: []
    edgeCollider2D: []
    attachPoints: []
  - name: title
    boundsData:
    - {x: 0, y: -.5, z: 0}
    - {x: 648, y: 129, z: 0}
    untrimmedBoundsData:
    - {x: 0, y: -.5, z: 0}
    - {x: 648, y: 129, z: 0}
    texelSize: {x: 1, y: 1}
    positions:
    - {x: -324, y: -65, z: 0}
    - {x: 324, y: -65, z: 0}
    - {x: -324, y: 64, z: 0}
    - {x: 324, y: 64, z: 0}
    normals: []
    tangents: []
    uvs:
    - {x: .00195507822, y: .000977539108}
    - {x: .00195507822, y: .633788109}
    - {x: .253904283, y: .000977539108}
    - {x: .253904283, y: .633788109}
    normalizedUvs:
    - {x: 0, y: 0}
    - {x: 0, y: .99999994}
    - {x: 1, y: 0}
    - {x: 1, y: .99999994}
    indices: 000000000300000001000000020000000300000000000000
    material: {fileID: 2100000, guid: b58bc4dd784a479448b2faa51de8189a, type: 2}
    materialId: 0
    sourceTextureGUID: 3bab562ccf9b0c9448615dbf15eb8017
    extractRegion: 0
    regionX: 0
    regionY: 0
    regionW: 0
    regionH: 0
    flipped: 1
    complexGeometry: 0
    physicsEngine: 0
    colliderType: 2
    customColliders: []
    colliderVertices:
    - {x: 0, y: -.5, z: 0}
    - {x: 324, y: 64.5, z: .100000001}
    colliderIndicesFwd: 
    colliderIndicesBack: 
    colliderConvex: 0
    colliderSmoothSphereCollisions: 0
    polygonCollider2D: []
    edgeCollider2D: []
    attachPoints: []
  - name: optionPress
    boundsData:
    - {x: .5, y: -.5, z: 0}
    - {x: 299, y: 53, z: 0}
    untrimmedBoundsData:
    - {x: .5, y: -.5, z: 0}
    - {x: 299, y: 53, z: 0}
    texelSize: {x: 1, y: 1}
    positions:
    - {x: -149, y: -27, z: 0}
    - {x: 150, y: -27, z: 0}
    - {x: -149, y: 26, z: 0}
    - {x: 150, y: 26, z: 0}
    normals: []
    tangents: []
    uvs:
    - {x: .00195507822, y: .929688454}
    - {x: .585935533, y: .929688454}
    - {x: .00195507822, y: .981444359}
    - {x: .585935533, y: .981444359}
    normalizedUvs:
    - {x: 0, y: 0}
    - {x: 1, y: 0}
    - {x: 0, y: 1}
    - {x: 1, y: 1}
    indices: 000000000300000001000000020000000300000000000000
    material: {fileID: 2100000, guid: b58bc4dd784a479448b2faa51de8189a, type: 2}
    materialId: 0
    sourceTextureGUID: 46a01a00ac776dd48ae8589ddef306e3
    extractRegion: 0
    regionX: 0
    regionY: 0
    regionW: 0
    regionH: 0
    flipped: 0
    complexGeometry: 0
    physicsEngine: 0
    colliderType: 2
    customColliders: []
    colliderVertices:
    - {x: .5, y: -.5, z: 0}
    - {x: 149.5, y: 26.5, z: .100000001}
    colliderIndicesFwd: 
    colliderIndicesBack: 
    colliderConvex: 0
    colliderSmoothSphereCollisions: 0
    polygonCollider2D: []
    edgeCollider2D: []
    attachPoints: []
  premultipliedAlpha: 0
  material: {fileID: 0}
  materials:
  - {fileID: 2100000, guid: b58bc4dd784a479448b2faa51de8189a, type: 2}
  textures:
  - {fileID: 2800000, guid: 140e50ef7b171fd449b56f69af8a84bc, type: 3}
  pngTextures: []
  materialPngTextureId: 00000000
  textureFilterMode: 0
  textureMipMaps: 0
  allowMultipleAtlases: 0
  spriteCollectionGUID: d99165a89d5edae4189b6c5185f74713
  spriteCollectionName: Main
  assetName: 
  loadable: 0
  invOrthoSize: 2
  halfTargetHeight: .5
  buildKey: 1332769865
  dataGuid: b2066f2b37b046842b3aac397ae0e266
  managedSpriteCollection: 0
  hasPlatformData: 0
  spriteCollectionPlatforms: []
  spriteCollectionPlatformGUIDs: []
--- !u!1001 &100100000
Prefab:
  m_ObjectHideFlags: 1
  serializedVersion: 2
  m_Modification:
    m_TransformParent: {fileID: 0}
    m_Modifications: []
    m_RemovedComponents: []
  m_ParentPrefab: {fileID: 0}
  m_RootGameObject: {fileID: 111744}
  m_IsPrefabParent: 1
  m_IsExploded: 1
