%YAML 1.1
%TAG !u! tag:unity3d.com,2011:
--- !u!1 &167608
GameObject:
  m_ObjectHideFlags: 0
  m_PrefabParentObject: {fileID: 0}
  m_PrefabInternal: {fileID: 100100000}
  serializedVersion: 4
  m_Component:
  - 4: {fileID: 411518}
  - 114: {fileID: 11489752}
  m_Layer: 0
  m_Name: animOn2
  m_TagString: Untagged
  m_Icon: {fileID: 0}
  m_NavMeshLayer: 0
  m_StaticEditorFlags: 0
  m_IsActive: 1
--- !u!4 &411518
Transform:
  m_ObjectHideFlags: 1
  m_PrefabParentObject: {fileID: 0}
  m_PrefabInternal: {fileID: 100100000}
  m_GameObject: {fileID: 167608}
  m_LocalRotation: {x: 0, y: 0, z: 0, w: 1}
  m_LocalPosition: {x: 0, y: 0, z: 0}
  m_LocalScale: {x: 1, y: 1, z: 1}
  m_Children: []
  m_Father: {fileID: 0}
  m_RootOrder: 0
--- !u!114 &11489752
MonoBehaviour:
  m_ObjectHideFlags: 1
  m_PrefabParentObject: {fileID: 0}
  m_PrefabInternal: {fileID: 100100000}
  m_GameObject: {fileID: 167608}
  m_Enabled: 1
  m_EditorHideFlags: 0
  m_Script: {fileID: 11500000, guid: d546f34a90531a14eaba82a43b05b86b, type: 3}
  m_Name: 
  m_EditorClassIdentifier: 
  version: 3
  materialIdsValid: 1
  needMaterialInstance: 0
  spriteDefinitions:
  - name: frame_6_delay-0.03s
    boundsData:
    - {x: 0, y: 0, z: 0}
    - {x: 1600, y: 900, z: 0}
    untrimmedBoundsData:
    - {x: 0, y: 0, z: 0}
    - {x: 1600, y: 900, z: 0}
    texelSize: {x: 1, y: 1}
    positions:
    - {x: -800, y: -450, z: 0}
    - {x: 800, y: -450, z: 0}
    - {x: -800, y: 450, z: 0}
    - {x: 800, y: 450, z: 0}
    normals: []
    tangents: []
    uvs:
    - {x: 0.0004885254, y: 0.0004885254}
    - {x: 0.39111304, y: 0.0004885254}
    - {x: 0.0004885254, y: 0.2202146}
    - {x: 0.39111304, y: 0.2202146}
    normalizedUvs:
    - {x: 0, y: 0}
    - {x: 1, y: 0}
    - {x: 0, y: 1}
    - {x: 1, y: 1}
    indices: 000000000300000001000000020000000300000000000000
    material: {fileID: 2100000, guid: 5e67f26ea2eb1d44e9697e365d4ac384, type: 2}
    materialId: 0
    sourceTextureGUID: 29817e922837b9142b2360ca60e51d38
    extractRegion: 0
    regionX: 0
    regionY: 0
    regionW: 0
    regionH: 0
    flipped: 0
    complexGeometry: 0
    physicsEngine: 0
    colliderType: 0
    customColliders: []
    colliderVertices: []
    colliderIndicesFwd: 
    colliderIndicesBack: 
    colliderConvex: 0
    colliderSmoothSphereCollisions: 0
    polygonCollider2D: []
    edgeCollider2D: []
    attachPoints: []
  - name: frame_7_delay-0.03s
    boundsData:
    - {x: 0, y: 0, z: 0}
    - {x: 1600, y: 900, z: 0}
    untrimmedBoundsData:
    - {x: 0, y: 0, z: 0}
    - {x: 1600, y: 900, z: 0}
    texelSize: {x: 1, y: 1}
    positions:
    - {x: -800, y: -450, z: 0}
    - {x: 800, y: -450, z: 0}
    - {x: -800, y: 450, z: 0}
    - {x: 800, y: 450, z: 0}
    normals: []
    tangents: []
    uvs:
    - {x: 0.39209008, y: 0.0004885254}
    - {x: 0.7827146, y: 0.0004885254}
    - {x: 0.39209008, y: 0.2202146}
    - {x: 0.7827146, y: 0.2202146}
    normalizedUvs:
    - {x: 0, y: 0}
    - {x: 1, y: 0}
    - {x: 0, y: 1}
    - {x: 1, y: 1}
    indices: 000000000300000001000000020000000300000000000000
    material: {fileID: 2100000, guid: 5e67f26ea2eb1d44e9697e365d4ac384, type: 2}
    materialId: 0
    sourceTextureGUID: 38b8a7032b345f8458b7d2bd4396869b
    extractRegion: 0
    regionX: 0
    regionY: 0
    regionW: 0
    regionH: 0
    flipped: 0
    complexGeometry: 0
    physicsEngine: 0
    colliderType: 0
    customColliders: []
    colliderVertices: []
    colliderIndicesFwd: 
    colliderIndicesBack: 
    colliderConvex: 0
    colliderSmoothSphereCollisions: 0
    polygonCollider2D: []
    edgeCollider2D: []
    attachPoints: []
  - name: frame_5_delay-0.03s
    boundsData:
    - {x: 0, y: 0, z: 0}
    - {x: 1600, y: 900, z: 0}
    untrimmedBoundsData:
    - {x: 0, y: 0, z: 0}
    - {x: 1600, y: 900, z: 0}
    texelSize: {x: 1, y: 1}
    positions:
    - {x: -800, y: -450, z: 0}
    - {x: 800, y: -450, z: 0}
    - {x: -800, y: 450, z: 0}
    - {x: 800, y: 450, z: 0}
    normals: []
    tangents: []
    uvs:
    - {x: 0.0004885254, y: 0.22119164}
    - {x: 0.0004885254, y: 0.61181617}
    - {x: 0.2202146, y: 0.22119164}
    - {x: 0.2202146, y: 0.61181617}
    normalizedUvs:
    - {x: 0, y: 0}
    - {x: 0, y: 1}
    - {x: 1, y: 0}
    - {x: 1, y: 1}
    indices: 000000000300000001000000020000000300000000000000
    material: {fileID: 2100000, guid: 5e67f26ea2eb1d44e9697e365d4ac384, type: 2}
    materialId: 0
    sourceTextureGUID: 1812a85460e50db45ad139a78411e56d
    extractRegion: 0
    regionX: 0
    regionY: 0
    regionW: 0
    regionH: 0
    flipped: 1
    complexGeometry: 0
    physicsEngine: 0
    colliderType: 0
    customColliders: []
    colliderVertices: []
    colliderIndicesFwd: 
    colliderIndicesBack: 
    colliderConvex: 0
    colliderSmoothSphereCollisions: 0
    polygonCollider2D: []
    edgeCollider2D: []
    attachPoints: []
  - name: frame_8_delay-0.03s
    boundsData:
    - {x: 0, y: 0, z: 0}
    - {x: 1600, y: 900, z: 0}
    untrimmedBoundsData:
    - {x: 0, y: 0, z: 0}
    - {x: 1600, y: 900, z: 0}
    texelSize: {x: 1, y: 1}
    positions:
    - {x: -800, y: -450, z: 0}
    - {x: 800, y: -450, z: 0}
    - {x: -800, y: 450, z: 0}
    - {x: 800, y: 450, z: 0}
    normals: []
    tangents: []
    uvs:
    - {x: 0.0004885254, y: 0.6127932}
    - {x: 0.39111304, y: 0.6127932}
    - {x: 0.0004885254, y: 0.8325193}
    - {x: 0.39111304, y: 0.8325193}
    normalizedUvs:
    - {x: 0, y: 0}
    - {x: 1, y: 0}
    - {x: 0, y: 1}
    - {x: 1, y: 1}
    indices: 000000000300000001000000020000000300000000000000
    material: {fileID: 2100000, guid: 5e67f26ea2eb1d44e9697e365d4ac384, type: 2}
    materialId: 0
    sourceTextureGUID: 51839f77869bd25498bc5d507e9d2403
    extractRegion: 0
    regionX: 0
    regionY: 0
    regionW: 0
    regionH: 0
    flipped: 0
    complexGeometry: 0
    physicsEngine: 0
    colliderType: 0
    customColliders: []
    colliderVertices: []
    colliderIndicesFwd: 
    colliderIndicesBack: 
    colliderConvex: 0
    colliderSmoothSphereCollisions: 0
    polygonCollider2D: []
    edgeCollider2D: []
    attachPoints: []
  - name: frame_9_delay-0.03s
    boundsData:
    - {x: 0, y: 0, z: 0}
    - {x: 1600, y: 900, z: 0}
    untrimmedBoundsData:
    - {x: 0, y: 0, z: 0}
    - {x: 1600, y: 900, z: 0}
    texelSize: {x: 1, y: 1}
    positions:
    - {x: -800, y: -450, z: 0}
    - {x: 800, y: -450, z: 0}
    - {x: -800, y: 450, z: 0}
    - {x: 800, y: 450, z: 0}
    normals: []
    tangents: []
    uvs:
    - {x: 0.22119164, y: 0.22119164}
    - {x: 0.22119164, y: 0.61181617}
    - {x: 0.44091773, y: 0.22119164}
    - {x: 0.44091773, y: 0.61181617}
    normalizedUvs:
    - {x: 0, y: 0}
    - {x: 0, y: 1}
    - {x: 1, y: 0}
    - {x: 1, y: 1}
    indices: 000000000300000001000000020000000300000000000000
    material: {fileID: 2100000, guid: 5e67f26ea2eb1d44e9697e365d4ac384, type: 2}
    materialId: 0
    sourceTextureGUID: feb514f112ed65f44808ef202ccb1cc1
    extractRegion: 0
    regionX: 0
    regionY: 0
    regionW: 0
    regionH: 0
    flipped: 1
    complexGeometry: 0
    physicsEngine: 0
    colliderType: 0
    customColliders: []
    colliderVertices: []
    colliderIndicesFwd: 
    colliderIndicesBack: 
    colliderConvex: 0
    colliderSmoothSphereCollisions: 0
    polygonCollider2D: []
    edgeCollider2D: []
    attachPoints: []
  premultipliedAlpha: 0
  material: {fileID: 0}
  materials:
  - {fileID: 2100000, guid: 5e67f26ea2eb1d44e9697e365d4ac384, type: 2}
  textures:
  - {fileID: 2800000, guid: fa1f3e7331041d44bb05a7130f20ef09, type: 3}
  pngTextures: []
  materialPngTextureId: 00000000
  textureFilterMode: 1
  textureMipMaps: 0
  allowMultipleAtlases: 0
  spriteCollectionGUID: 02ff5347096055346ad6aad520e4da49
  spriteCollectionName: animOn2
  assetName: 
  loadable: 0
  invOrthoSize: 2
  halfTargetHeight: 0.5
  buildKey: 1844559617
  dataGuid: 5b824f9185462ae45bdf22279476f044
  managedSpriteCollection: 0
  hasPlatformData: 0
  spriteCollectionPlatforms: []
  spriteCollectionPlatformGUIDs: []
--- !u!1001 &100100000
Prefab:
  m_ObjectHideFlags: 1
  serializedVersion: 2
  m_Modification:
    m_TransformParent: {fileID: 0}
    m_Modifications: []
    m_RemovedComponents: []
  m_ParentPrefab: {fileID: 0}
  m_RootGameObject: {fileID: 167608}
  m_IsPrefabParent: 1
