%YAML 1.1
%TAG !u! tag:unity3d.com,2011:
--- !u!1 &197656
GameObject:
  m_ObjectHideFlags: 0
  m_PrefabParentObject: {fileID: 0}
  m_PrefabInternal: {fileID: 100100000}
  serializedVersion: 4
  m_Component:
  - 4: {fileID: 497656}
  - 114: {fileID: 11497656}
  m_Layer: 0
  m_Name: 02
  m_TagString: Untagged
  m_Icon: {fileID: 0}
  m_NavMeshLayer: 0
  m_StaticEditorFlags: 0
  m_IsActive: 1
--- !u!4 &497656
Transform:
  m_ObjectHideFlags: 1
  m_PrefabParentObject: {fileID: 0}
  m_PrefabInternal: {fileID: 100100000}
  m_GameObject: {fileID: 197656}
  m_LocalRotation: {x: 0, y: 0, z: 0, w: 1}
  m_LocalPosition: {x: 0, y: 0, z: 0}
  m_LocalScale: {x: 1, y: 1, z: 1}
  m_Children: []
  m_Father: {fileID: 0}
  m_RootOrder: 0
--- !u!114 &11497656
MonoBehaviour:
  m_ObjectHideFlags: 1
  m_PrefabParentObject: {fileID: 0}
  m_PrefabInternal: {fileID: 100100000}
  m_GameObject: {fileID: 197656}
  m_Enabled: 1
  m_EditorHideFlags: 0
  m_Script: {fileID: 11500000, guid: d546f34a90531a14eaba82a43b05b86b, type: 3}
  m_Name: 
  m_EditorClassIdentifier: 
  version: 3
  materialIdsValid: 1
  needMaterialInstance: 0
  spriteDefinitions:
  - name: s_0007s_0003_5
    boundsData:
    - {x: .5, y: 0, z: 0}
    - {x: 239, y: 356, z: 0}
    untrimmedBoundsData:
    - {x: .5, y: 0, z: 0}
    - {x: 239, y: 356, z: 0}
    texelSize: {x: 1, y: 1}
    positions:
    - {x: -119, y: -178, z: 0}
    - {x: 120, y: -178, z: 0}
    - {x: -119, y: 178, z: 0}
    - {x: 120, y: 178, z: 0}
    normals: []
    tangents: []
    uvs:
    - {x: 4.88281273e-07, y: 4.88281273e-07}
    - {x: .116698727, y: 4.88281273e-07}
    - {x: 4.88281273e-07, y: .173827633}
    - {x: .116698727, y: .173827633}
    normalizedUvs:
    - {x: 0, y: 0}
    - {x: 1, y: 0}
    - {x: 0, y: 1}
    - {x: 1, y: 1}
    indices: 000000000300000001000000020000000300000000000000
    material: {fileID: 2100000, guid: e04796d3350b7c74ca1ff6379eb5a90f, type: 2}
    materialId: 0
    sourceTextureGUID: 06ff57d9e3097ca439e6dc5fe04f1740
    extractRegion: 0
    regionX: 0
    regionY: 0
    regionW: 0
    regionH: 0
    flipped: 0
    complexGeometry: 0
    physicsEngine: 0
    colliderType: 0
    customColliders: []
    colliderVertices: []
    colliderIndicesFwd: 
    colliderIndicesBack: 
    colliderConvex: 0
    colliderSmoothSphereCollisions: 0
    polygonCollider2D: []
    edgeCollider2D: []
    attachPoints: []
  - name: s_0009s_0003_5
    boundsData:
    - {x: .5, y: 0, z: 0}
    - {x: 239, y: 356, z: 0}
    untrimmedBoundsData:
    - {x: .5, y: 0, z: 0}
    - {x: 239, y: 356, z: 0}
    texelSize: {x: 1, y: 1}
    positions:
    - {x: -119, y: -178, z: 0}
    - {x: 120, y: -178, z: 0}
    - {x: -119, y: 178, z: 0}
    - {x: 120, y: 178, z: 0}
    normals: []
    tangents: []
    uvs:
    - {x: 4.88281273e-07, y: .173828617}
    - {x: .116698727, y: .173828617}
    - {x: 4.88281273e-07, y: .347655773}
    - {x: .116698727, y: .347655773}
    normalizedUvs:
    - {x: 0, y: 0}
    - {x: 1, y: 0}
    - {x: 0, y: 1}
    - {x: 1, y: 1}
    indices: 000000000300000001000000020000000300000000000000
    material: {fileID: 2100000, guid: e04796d3350b7c74ca1ff6379eb5a90f, type: 2}
    materialId: 0
    sourceTextureGUID: 0c3919e2f0fdfed45a5fe36e93bcd61e
    extractRegion: 0
    regionX: 0
    regionY: 0
    regionW: 0
    regionH: 0
    flipped: 0
    complexGeometry: 0
    physicsEngine: 0
    colliderType: 0
    customColliders: []
    colliderVertices: []
    colliderIndicesFwd: 
    colliderIndicesBack: 
    colliderConvex: 0
    colliderSmoothSphereCollisions: 0
    polygonCollider2D: []
    edgeCollider2D: []
    attachPoints: []
  - name: s_0008s_0002_6
    boundsData:
    - {x: .5, y: 0, z: 0}
    - {x: 239, y: 356, z: 0}
    untrimmedBoundsData:
    - {x: .5, y: 0, z: 0}
    - {x: 239, y: 356, z: 0}
    texelSize: {x: 1, y: 1}
    positions:
    - {x: -119, y: -178, z: 0}
    - {x: 120, y: -178, z: 0}
    - {x: -119, y: 178, z: 0}
    - {x: 120, y: 178, z: 0}
    normals: []
    tangents: []
    uvs:
    - {x: 4.88281273e-07, y: .347656727}
    - {x: .116698727, y: .347656727}
    - {x: 4.88281273e-07, y: .521483898}
    - {x: .116698727, y: .521483898}
    normalizedUvs:
    - {x: 0, y: 0}
    - {x: 1, y: 0}
    - {x: 0, y: 1}
    - {x: 1, y: 1}
    indices: 000000000300000001000000020000000300000000000000
    material: {fileID: 2100000, guid: e04796d3350b7c74ca1ff6379eb5a90f, type: 2}
    materialId: 0
    sourceTextureGUID: 176cb7e6a5475b9418e91846b23cf185
    extractRegion: 0
    regionX: 0
    regionY: 0
    regionW: 0
    regionH: 0
    flipped: 0
    complexGeometry: 0
    physicsEngine: 0
    colliderType: 0
    customColliders: []
    colliderVertices: []
    colliderIndicesFwd: 
    colliderIndicesBack: 
    colliderConvex: 0
    colliderSmoothSphereCollisions: 0
    polygonCollider2D: []
    edgeCollider2D: []
    attachPoints: []
  - name: s_0000s_0025_6
    boundsData:
    - {x: .5, y: 0, z: 0}
    - {x: 239, y: 356, z: 0}
    untrimmedBoundsData:
    - {x: .5, y: 0, z: 0}
    - {x: 239, y: 356, z: 0}
    texelSize: {x: 1, y: 1}
    positions:
    - {x: -119, y: -178, z: 0}
    - {x: 120, y: -178, z: 0}
    - {x: -119, y: 178, z: 0}
    - {x: 120, y: 178, z: 0}
    normals: []
    tangents: []
    uvs:
    - {x: 4.88281273e-07, y: .521484852}
    - {x: .116698727, y: .521484852}
    - {x: 4.88281273e-07, y: .695312023}
    - {x: .116698727, y: .695312023}
    normalizedUvs:
    - {x: 0, y: 0}
    - {x: 1, y: 0}
    - {x: 0, y: 1}
    - {x: 1, y: 1}
    indices: 000000000300000001000000020000000300000000000000
    material: {fileID: 2100000, guid: e04796d3350b7c74ca1ff6379eb5a90f, type: 2}
    materialId: 0
    sourceTextureGUID: 1bb10a4ba53685d48b4380fb760c2f78
    extractRegion: 0
    regionX: 0
    regionY: 0
    regionW: 0
    regionH: 0
    flipped: 0
    complexGeometry: 0
    physicsEngine: 0
    colliderType: 0
    customColliders: []
    colliderVertices: []
    colliderIndicesFwd: 
    colliderIndicesBack: 
    colliderConvex: 0
    colliderSmoothSphereCollisions: 0
    polygonCollider2D: []
    edgeCollider2D: []
    attachPoints: []
  - name: s_0000s_0026_5
    boundsData:
    - {x: .5, y: 0, z: 0}
    - {x: 239, y: 356, z: 0}
    untrimmedBoundsData:
    - {x: .5, y: 0, z: 0}
    - {x: 239, y: 356, z: 0}
    texelSize: {x: 1, y: 1}
    positions:
    - {x: -119, y: -178, z: 0}
    - {x: 120, y: -178, z: 0}
    - {x: -119, y: 178, z: 0}
    - {x: 120, y: 178, z: 0}
    normals: []
    tangents: []
    uvs:
    - {x: 4.88281273e-07, y: .695312977}
    - {x: .116698727, y: .695312977}
    - {x: 4.88281273e-07, y: .869140148}
    - {x: .116698727, y: .869140148}
    normalizedUvs:
    - {x: 0, y: 0}
    - {x: 1, y: 0}
    - {x: 0, y: 1}
    - {x: 1, y: 1}
    indices: 000000000300000001000000020000000300000000000000
    material: {fileID: 2100000, guid: e04796d3350b7c74ca1ff6379eb5a90f, type: 2}
    materialId: 0
    sourceTextureGUID: 245ec82b051b4844b8776e89f67d5c81
    extractRegion: 0
    regionX: 0
    regionY: 0
    regionW: 0
    regionH: 0
    flipped: 0
    complexGeometry: 0
    physicsEngine: 0
    colliderType: 0
    customColliders: []
    colliderVertices: []
    colliderIndicesFwd: 
    colliderIndicesBack: 
    colliderConvex: 0
    colliderSmoothSphereCollisions: 0
    polygonCollider2D: []
    edgeCollider2D: []
    attachPoints: []
  - name: s_0000s_0024_7
    boundsData:
    - {x: .5, y: 0, z: 0}
    - {x: 239, y: 356, z: 0}
    untrimmedBoundsData:
    - {x: .5, y: 0, z: 0}
    - {x: 239, y: 356, z: 0}
    texelSize: {x: 1, y: 1}
    positions:
    - {x: -119, y: -178, z: 0}
    - {x: 120, y: -178, z: 0}
    - {x: -119, y: 178, z: 0}
    - {x: 120, y: 178, z: 0}
    normals: []
    tangents: []
    uvs:
    - {x: 4.88281273e-07, y: .869141102}
    - {x: 4.88281273e-07, y: .985839367}
    - {x: .173827633, y: .869141102}
    - {x: .173827633, y: .985839367}
    normalizedUvs:
    - {x: 0, y: 0}
    - {x: 0, y: 1}
    - {x: 1, y: 0}
    - {x: 1, y: 1}
    indices: 000000000300000001000000020000000300000000000000
    material: {fileID: 2100000, guid: e04796d3350b7c74ca1ff6379eb5a90f, type: 2}
    materialId: 0
    sourceTextureGUID: 2726fd345f8b7ab4b88bf6200147a7ca
    extractRegion: 0
    regionX: 0
    regionY: 0
    regionW: 0
    regionH: 0
    flipped: 1
    complexGeometry: 0
    physicsEngine: 0
    colliderType: 0
    customColliders: []
    colliderVertices: []
    colliderIndicesFwd: 
    colliderIndicesBack: 
    colliderConvex: 0
    colliderSmoothSphereCollisions: 0
    polygonCollider2D: []
    edgeCollider2D: []
    attachPoints: []
  - name: s_0009s_0002_6
    boundsData:
    - {x: .5, y: 0, z: 0}
    - {x: 239, y: 356, z: 0}
    untrimmedBoundsData:
    - {x: .5, y: 0, z: 0}
    - {x: 239, y: 356, z: 0}
    texelSize: {x: 1, y: 1}
    positions:
    - {x: -119, y: -178, z: 0}
    - {x: 120, y: -178, z: 0}
    - {x: -119, y: 178, z: 0}
    - {x: 120, y: 178, z: 0}
    normals: []
    tangents: []
    uvs:
    - {x: .11669971, y: 4.88281273e-07}
    - {x: .233397946, y: 4.88281273e-07}
    - {x: .11669971, y: .173827633}
    - {x: .233397946, y: .173827633}
    normalizedUvs:
    - {x: 0, y: 0}
    - {x: 1, y: 0}
    - {x: 0, y: 1}
    - {x: 1, y: 1}
    indices: 000000000300000001000000020000000300000000000000
    material: {fileID: 2100000, guid: e04796d3350b7c74ca1ff6379eb5a90f, type: 2}
    materialId: 0
    sourceTextureGUID: 29760c1fd72ac6740b3d3e3d1fa06289
    extractRegion: 0
    regionX: 0
    regionY: 0
    regionW: 0
    regionH: 0
    flipped: 0
    complexGeometry: 0
    physicsEngine: 0
    colliderType: 0
    customColliders: []
    colliderVertices: []
    colliderIndicesFwd: 
    colliderIndicesBack: 
    colliderConvex: 0
    colliderSmoothSphereCollisions: 0
    polygonCollider2D: []
    edgeCollider2D: []
    attachPoints: []
  - name: s_0007s_0002_6
    boundsData:
    - {x: .5, y: 0, z: 0}
    - {x: 239, y: 356, z: 0}
    untrimmedBoundsData:
    - {x: .5, y: 0, z: 0}
    - {x: 239, y: 356, z: 0}
    texelSize: {x: 1, y: 1}
    positions:
    - {x: -119, y: -178, z: 0}
    - {x: 120, y: -178, z: 0}
    - {x: -119, y: 178, z: 0}
    - {x: 120, y: 178, z: 0}
    normals: []
    tangents: []
    uvs:
    - {x: .11669971, y: .173828617}
    - {x: .233397946, y: .173828617}
    - {x: .11669971, y: .347655773}
    - {x: .233397946, y: .347655773}
    normalizedUvs:
    - {x: 0, y: 0}
    - {x: 1, y: 0}
    - {x: 0, y: 1}
    - {x: 1, y: 1}
    indices: 000000000300000001000000020000000300000000000000
    material: {fileID: 2100000, guid: e04796d3350b7c74ca1ff6379eb5a90f, type: 2}
    materialId: 0
    sourceTextureGUID: 29cbc4609354f434eae5517dea7adabf
    extractRegion: 0
    regionX: 0
    regionY: 0
    regionW: 0
    regionH: 0
    flipped: 0
    complexGeometry: 0
    physicsEngine: 0
    colliderType: 0
    customColliders: []
    colliderVertices: []
    colliderIndicesFwd: 
    colliderIndicesBack: 
    colliderConvex: 0
    colliderSmoothSphereCollisions: 0
    polygonCollider2D: []
    edgeCollider2D: []
    attachPoints: []
  - name: s_0008s_0003_5
    boundsData:
    - {x: .5, y: 0, z: 0}
    - {x: 239, y: 356, z: 0}
    untrimmedBoundsData:
    - {x: .5, y: 0, z: 0}
    - {x: 239, y: 356, z: 0}
    texelSize: {x: 1, y: 1}
    positions:
    - {x: -119, y: -178, z: 0}
    - {x: 120, y: -178, z: 0}
    - {x: -119, y: 178, z: 0}
    - {x: 120, y: 178, z: 0}
    normals: []
    tangents: []
    uvs:
    - {x: .11669971, y: .347656727}
    - {x: .233397946, y: .347656727}
    - {x: .11669971, y: .521483898}
    - {x: .233397946, y: .521483898}
    normalizedUvs:
    - {x: 0, y: 0}
    - {x: 1, y: 0}
    - {x: 0, y: 1}
    - {x: 1, y: 1}
    indices: 000000000300000001000000020000000300000000000000
    material: {fileID: 2100000, guid: e04796d3350b7c74ca1ff6379eb5a90f, type: 2}
    materialId: 0
    sourceTextureGUID: 306ec3c52274f064b90758abdb7d3553
    extractRegion: 0
    regionX: 0
    regionY: 0
    regionW: 0
    regionH: 0
    flipped: 0
    complexGeometry: 0
    physicsEngine: 0
    colliderType: 0
    customColliders: []
    colliderVertices: []
    colliderIndicesFwd: 
    colliderIndicesBack: 
    colliderConvex: 0
    colliderSmoothSphereCollisions: 0
    polygonCollider2D: []
    edgeCollider2D: []
    attachPoints: []
  - name: s_0000s_0032_7
    boundsData:
    - {x: .5, y: 0, z: 0}
    - {x: 239, y: 356, z: 0}
    untrimmedBoundsData:
    - {x: .5, y: 0, z: 0}
    - {x: 239, y: 356, z: 0}
    texelSize: {x: 1, y: 1}
    positions:
    - {x: -119, y: -178, z: 0}
    - {x: 120, y: -178, z: 0}
    - {x: -119, y: 178, z: 0}
    - {x: 120, y: 178, z: 0}
    normals: []
    tangents: []
    uvs:
    - {x: .11669971, y: .521484852}
    - {x: .233397946, y: .521484852}
    - {x: .11669971, y: .695312023}
    - {x: .233397946, y: .695312023}
    normalizedUvs:
    - {x: 0, y: 0}
    - {x: 1, y: 0}
    - {x: 0, y: 1}
    - {x: 1, y: 1}
    indices: 000000000300000001000000020000000300000000000000
    material: {fileID: 2100000, guid: e04796d3350b7c74ca1ff6379eb5a90f, type: 2}
    materialId: 0
    sourceTextureGUID: 3a72923fc52d0b84bb1eb7a4af8d1262
    extractRegion: 0
    regionX: 0
    regionY: 0
    regionW: 0
    regionH: 0
    flipped: 0
    complexGeometry: 0
    physicsEngine: 0
    colliderType: 0
    customColliders: []
    colliderVertices: []
    colliderIndicesFwd: 
    colliderIndicesBack: 
    colliderConvex: 0
    colliderSmoothSphereCollisions: 0
    polygonCollider2D: []
    edgeCollider2D: []
    attachPoints: []
  - name: s_0000s_0029_6
    boundsData:
    - {x: .5, y: 0, z: 0}
    - {x: 239, y: 356, z: 0}
    untrimmedBoundsData:
    - {x: .5, y: 0, z: 0}
    - {x: 239, y: 356, z: 0}
    texelSize: {x: 1, y: 1}
    positions:
    - {x: -119, y: -178, z: 0}
    - {x: 120, y: -178, z: 0}
    - {x: -119, y: 178, z: 0}
    - {x: 120, y: 178, z: 0}
    normals: []
    tangents: []
    uvs:
    - {x: .11669971, y: .695312977}
    - {x: .233397946, y: .695312977}
    - {x: .11669971, y: .869140148}
    - {x: .233397946, y: .869140148}
    normalizedUvs:
    - {x: 0, y: 0}
    - {x: 1, y: 0}
    - {x: 0, y: 1}
    - {x: 1, y: 1}
    indices: 000000000300000001000000020000000300000000000000
    material: {fileID: 2100000, guid: e04796d3350b7c74ca1ff6379eb5a90f, type: 2}
    materialId: 0
    sourceTextureGUID: 472d44188781f5543aa59ed59607c660
    extractRegion: 0
    regionX: 0
    regionY: 0
    regionW: 0
    regionH: 0
    flipped: 0
    complexGeometry: 0
    physicsEngine: 0
    colliderType: 0
    customColliders: []
    colliderVertices: []
    colliderIndicesFwd: 
    colliderIndicesBack: 
    colliderConvex: 0
    colliderSmoothSphereCollisions: 0
    polygonCollider2D: []
    edgeCollider2D: []
    attachPoints: []
  - name: s_0009s_0000_8
    boundsData:
    - {x: .5, y: 0, z: 0}
    - {x: 239, y: 356, z: 0}
    untrimmedBoundsData:
    - {x: .5, y: 0, z: 0}
    - {x: 239, y: 356, z: 0}
    texelSize: {x: 1, y: 1}
    positions:
    - {x: -119, y: -178, z: 0}
    - {x: 120, y: -178, z: 0}
    - {x: -119, y: 178, z: 0}
    - {x: 120, y: 178, z: 0}
    normals: []
    tangents: []
    uvs:
    - {x: .173828617, y: .869141102}
    - {x: .173828617, y: .985839367}
    - {x: .347655773, y: .869141102}
    - {x: .347655773, y: .985839367}
    normalizedUvs:
    - {x: 0, y: 0}
    - {x: 0, y: 1}
    - {x: 1, y: 0}
    - {x: 1, y: 1}
    indices: 000000000300000001000000020000000300000000000000
    material: {fileID: 2100000, guid: e04796d3350b7c74ca1ff6379eb5a90f, type: 2}
    materialId: 0
    sourceTextureGUID: 50e69ce2c2f7aa24fbe458658bcaf329
    extractRegion: 0
    regionX: 0
    regionY: 0
    regionW: 0
    regionH: 0
    flipped: 1
    complexGeometry: 0
    physicsEngine: 0
    colliderType: 0
    customColliders: []
    colliderVertices: []
    colliderIndicesFwd: 
    colliderIndicesBack: 
    colliderConvex: 0
    colliderSmoothSphereCollisions: 0
    polygonCollider2D: []
    edgeCollider2D: []
    attachPoints: []
  - name: s_0009s_0001_7
    boundsData:
    - {x: .5, y: 0, z: 0}
    - {x: 239, y: 356, z: 0}
    untrimmedBoundsData:
    - {x: .5, y: 0, z: 0}
    - {x: 239, y: 356, z: 0}
    texelSize: {x: 1, y: 1}
    positions:
    - {x: -119, y: -178, z: 0}
    - {x: 120, y: -178, z: 0}
    - {x: -119, y: 178, z: 0}
    - {x: 120, y: 178, z: 0}
    normals: []
    tangents: []
    uvs:
    - {x: .347656727, y: 4.88281273e-07}
    - {x: .347656727, y: .116698727}
    - {x: .521483898, y: 4.88281273e-07}
    - {x: .521483898, y: .116698727}
    normalizedUvs:
    - {x: 0, y: 0}
    - {x: 0, y: 1}
    - {x: 1, y: 0}
    - {x: 1, y: 1}
    indices: 000000000300000001000000020000000300000000000000
    material: {fileID: 2100000, guid: e04796d3350b7c74ca1ff6379eb5a90f, type: 2}
    materialId: 0
    sourceTextureGUID: 56b450283262eda47a872887de47235a
    extractRegion: 0
    regionX: 0
    regionY: 0
    regionW: 0
    regionH: 0
    flipped: 1
    complexGeometry: 0
    physicsEngine: 0
    colliderType: 0
    customColliders: []
    colliderVertices: []
    colliderIndicesFwd: 
    colliderIndicesBack: 
    colliderConvex: 0
    colliderSmoothSphereCollisions: 0
    polygonCollider2D: []
    edgeCollider2D: []
    attachPoints: []
  - name: s_0007s_0000_8
    boundsData:
    - {x: .5, y: 0, z: 0}
    - {x: 239, y: 356, z: 0}
    untrimmedBoundsData:
    - {x: .5, y: 0, z: 0}
    - {x: 239, y: 356, z: 0}
    texelSize: {x: 1, y: 1}
    positions:
    - {x: -119, y: -178, z: 0}
    - {x: 120, y: -178, z: 0}
    - {x: -119, y: 178, z: 0}
    - {x: 120, y: 178, z: 0}
    normals: []
    tangents: []
    uvs:
    - {x: .521484852, y: 4.88281273e-07}
    - {x: .521484852, y: .116698727}
    - {x: .695312023, y: 4.88281273e-07}
    - {x: .695312023, y: .116698727}
    normalizedUvs:
    - {x: 0, y: 0}
    - {x: 0, y: 1}
    - {x: 1, y: 0}
    - {x: 1, y: 1}
    indices: 000000000300000001000000020000000300000000000000
    material: {fileID: 2100000, guid: e04796d3350b7c74ca1ff6379eb5a90f, type: 2}
    materialId: 0
    sourceTextureGUID: 86a81d121f0090c43bdfb2fe27e38e65
    extractRegion: 0
    regionX: 0
    regionY: 0
    regionW: 0
    regionH: 0
    flipped: 1
    complexGeometry: 0
    physicsEngine: 0
    colliderType: 0
    customColliders: []
    colliderVertices: []
    colliderIndicesFwd: 
    colliderIndicesBack: 
    colliderConvex: 0
    colliderSmoothSphereCollisions: 0
    polygonCollider2D: []
    edgeCollider2D: []
    attachPoints: []
  - name: s_0008s_0001_7
    boundsData:
    - {x: .5, y: 0, z: 0}
    - {x: 239, y: 356, z: 0}
    untrimmedBoundsData:
    - {x: .5, y: 0, z: 0}
    - {x: 239, y: 356, z: 0}
    texelSize: {x: 1, y: 1}
    positions:
    - {x: -119, y: -178, z: 0}
    - {x: 120, y: -178, z: 0}
    - {x: -119, y: 178, z: 0}
    - {x: 120, y: 178, z: 0}
    normals: []
    tangents: []
    uvs:
    - {x: .695312977, y: 4.88281273e-07}
    - {x: .695312977, y: .116698727}
    - {x: .869140148, y: 4.88281273e-07}
    - {x: .869140148, y: .116698727}
    normalizedUvs:
    - {x: 0, y: 0}
    - {x: 0, y: 1}
    - {x: 1, y: 0}
    - {x: 1, y: 1}
    indices: 000000000300000001000000020000000300000000000000
    material: {fileID: 2100000, guid: e04796d3350b7c74ca1ff6379eb5a90f, type: 2}
    materialId: 0
    sourceTextureGUID: 8c593415422bda54bb4438e5614ce719
    extractRegion: 0
    regionX: 0
    regionY: 0
    regionW: 0
    regionH: 0
    flipped: 1
    complexGeometry: 0
    physicsEngine: 0
    colliderType: 0
    customColliders: []
    colliderVertices: []
    colliderIndicesFwd: 
    colliderIndicesBack: 
    colliderConvex: 0
    colliderSmoothSphereCollisions: 0
    polygonCollider2D: []
    edgeCollider2D: []
    attachPoints: []
  - name: s_0007s_0001_7
    boundsData:
    - {x: .5, y: 0, z: 0}
    - {x: 239, y: 356, z: 0}
    untrimmedBoundsData:
    - {x: .5, y: 0, z: 0}
    - {x: 239, y: 356, z: 0}
    texelSize: {x: 1, y: 1}
    positions:
    - {x: -119, y: -178, z: 0}
    - {x: 120, y: -178, z: 0}
    - {x: -119, y: 178, z: 0}
    - {x: 120, y: 178, z: 0}
    normals: []
    tangents: []
    uvs:
    - {x: .869141102, y: 4.88281273e-07}
    - {x: .985839367, y: 4.88281273e-07}
    - {x: .869141102, y: .173827633}
    - {x: .985839367, y: .173827633}
    normalizedUvs:
    - {x: 0, y: 0}
    - {x: 1, y: 0}
    - {x: 0, y: 1}
    - {x: 1, y: 1}
    indices: 000000000300000001000000020000000300000000000000
    material: {fileID: 2100000, guid: e04796d3350b7c74ca1ff6379eb5a90f, type: 2}
    materialId: 0
    sourceTextureGUID: 8d58de3378d593d4c8fcb6b289fa5b8b
    extractRegion: 0
    regionX: 0
    regionY: 0
    regionW: 0
    regionH: 0
    flipped: 0
    complexGeometry: 0
    physicsEngine: 0
    colliderType: 0
    customColliders: []
    colliderVertices: []
    colliderIndicesFwd: 
    colliderIndicesBack: 
    colliderConvex: 0
    colliderSmoothSphereCollisions: 0
    polygonCollider2D: []
    edgeCollider2D: []
    attachPoints: []
  - name: s_0000s_0033_6
    boundsData:
    - {x: .5, y: 0, z: 0}
    - {x: 239, y: 356, z: 0}
    untrimmedBoundsData:
    - {x: .5, y: 0, z: 0}
    - {x: 239, y: 356, z: 0}
    texelSize: {x: 1, y: 1}
    positions:
    - {x: -119, y: -178, z: 0}
    - {x: 120, y: -178, z: 0}
    - {x: -119, y: 178, z: 0}
    - {x: 120, y: 178, z: 0}
    normals: []
    tangents: []
    uvs:
    - {x: .347656727, y: .11669971}
    - {x: .347656727, y: .233397946}
    - {x: .521483898, y: .11669971}
    - {x: .521483898, y: .233397946}
    normalizedUvs:
    - {x: 0, y: 0}
    - {x: 0, y: 1}
    - {x: 1, y: 0}
    - {x: 1, y: 1}
    indices: 000000000300000001000000020000000300000000000000
    material: {fileID: 2100000, guid: e04796d3350b7c74ca1ff6379eb5a90f, type: 2}
    materialId: 0
    sourceTextureGUID: 92fff1ac1f37b9b40a16ed08c07c20a0
    extractRegion: 0
    regionX: 0
    regionY: 0
    regionW: 0
    regionH: 0
    flipped: 1
    complexGeometry: 0
    physicsEngine: 0
    colliderType: 0
    customColliders: []
    colliderVertices: []
    colliderIndicesFwd: 
    colliderIndicesBack: 
    colliderConvex: 0
    colliderSmoothSphereCollisions: 0
    polygonCollider2D: []
    edgeCollider2D: []
    attachPoints: []
  - name: s_0008s_0000_8
    boundsData:
    - {x: .5, y: 0, z: 0}
    - {x: 239, y: 356, z: 0}
    untrimmedBoundsData:
    - {x: .5, y: 0, z: 0}
    - {x: 239, y: 356, z: 0}
    texelSize: {x: 1, y: 1}
    positions:
    - {x: -119, y: -178, z: 0}
    - {x: 120, y: -178, z: 0}
    - {x: -119, y: 178, z: 0}
    - {x: 120, y: 178, z: 0}
    normals: []
    tangents: []
    uvs:
    - {x: .521484852, y: .11669971}
    - {x: .521484852, y: .233397946}
    - {x: .695312023, y: .11669971}
    - {x: .695312023, y: .233397946}
    normalizedUvs:
    - {x: 0, y: 0}
    - {x: 0, y: 1}
    - {x: 1, y: 0}
    - {x: 1, y: 1}
    indices: 000000000300000001000000020000000300000000000000
    material: {fileID: 2100000, guid: e04796d3350b7c74ca1ff6379eb5a90f, type: 2}
    materialId: 0
    sourceTextureGUID: 9d6a16d9dcb804c4496a2aa1504d1753
    extractRegion: 0
    regionX: 0
    regionY: 0
    regionW: 0
    regionH: 0
    flipped: 1
    complexGeometry: 0
    physicsEngine: 0
    colliderType: 0
    customColliders: []
    colliderVertices: []
    colliderIndicesFwd: 
    colliderIndicesBack: 
    colliderConvex: 0
    colliderSmoothSphereCollisions: 0
    polygonCollider2D: []
    edgeCollider2D: []
    attachPoints: []
  - name: s_0000s_0027_8
    boundsData:
    - {x: .5, y: 0, z: 0}
    - {x: 239, y: 356, z: 0}
    untrimmedBoundsData:
    - {x: .5, y: 0, z: 0}
    - {x: 239, y: 356, z: 0}
    texelSize: {x: 1, y: 1}
    positions:
    - {x: -119, y: -178, z: 0}
    - {x: 120, y: -178, z: 0}
    - {x: -119, y: 178, z: 0}
    - {x: 120, y: 178, z: 0}
    normals: []
    tangents: []
    uvs:
    - {x: .695312977, y: .11669971}
    - {x: .695312977, y: .233397946}
    - {x: .869140148, y: .11669971}
    - {x: .869140148, y: .233397946}
    normalizedUvs:
    - {x: 0, y: 0}
    - {x: 0, y: 1}
    - {x: 1, y: 0}
    - {x: 1, y: 1}
    indices: 000000000300000001000000020000000300000000000000
    material: {fileID: 2100000, guid: e04796d3350b7c74ca1ff6379eb5a90f, type: 2}
    materialId: 0
    sourceTextureGUID: a3c12a9707a062b45a87d627a9982f01
    extractRegion: 0
    regionX: 0
    regionY: 0
    regionW: 0
    regionH: 0
    flipped: 1
    complexGeometry: 0
    physicsEngine: 0
    colliderType: 0
    customColliders: []
    colliderVertices: []
    colliderIndicesFwd: 
    colliderIndicesBack: 
    colliderConvex: 0
    colliderSmoothSphereCollisions: 0
    polygonCollider2D: []
    edgeCollider2D: []
    attachPoints: []
  - name: s_0000s_0028_7
    boundsData:
    - {x: .5, y: 0, z: 0}
    - {x: 239, y: 356, z: 0}
    untrimmedBoundsData:
    - {x: .5, y: 0, z: 0}
    - {x: 239, y: 356, z: 0}
    texelSize: {x: 1, y: 1}
    positions:
    - {x: -119, y: -178, z: 0}
    - {x: 120, y: -178, z: 0}
    - {x: -119, y: 178, z: 0}
    - {x: 120, y: 178, z: 0}
    normals: []
    tangents: []
    uvs:
    - {x: .869141102, y: .173828617}
    - {x: .985839367, y: .173828617}
    - {x: .869141102, y: .347655773}
    - {x: .985839367, y: .347655773}
    normalizedUvs:
    - {x: 0, y: 0}
    - {x: 1, y: 0}
    - {x: 0, y: 1}
    - {x: 1, y: 1}
    indices: 000000000300000001000000020000000300000000000000
    material: {fileID: 2100000, guid: e04796d3350b7c74ca1ff6379eb5a90f, type: 2}
    materialId: 0
    sourceTextureGUID: bf47fd56c2057ec458e0382cc2b08b7a
    extractRegion: 0
    regionX: 0
    regionY: 0
    regionW: 0
    regionH: 0
    flipped: 0
    complexGeometry: 0
    physicsEngine: 0
    colliderType: 0
    customColliders: []
    colliderVertices: []
    colliderIndicesFwd: 
    colliderIndicesBack: 
    colliderConvex: 0
    colliderSmoothSphereCollisions: 0
    polygonCollider2D: []
    edgeCollider2D: []
    attachPoints: []
  - name: s_0000s_0034_5
    boundsData:
    - {x: .5, y: 0, z: 0}
    - {x: 239, y: 356, z: 0}
    untrimmedBoundsData:
    - {x: .5, y: 0, z: 0}
    - {x: 239, y: 356, z: 0}
    texelSize: {x: 1, y: 1}
    positions:
    - {x: -119, y: -178, z: 0}
    - {x: 120, y: -178, z: 0}
    - {x: -119, y: 178, z: 0}
    - {x: 120, y: 178, z: 0}
    normals: []
    tangents: []
    uvs:
    - {x: .233398929, y: .347656727}
    - {x: .350097179, y: .347656727}
    - {x: .233398929, y: .521483898}
    - {x: .350097179, y: .521483898}
    normalizedUvs:
    - {x: 0, y: 0}
    - {x: 1, y: 0}
    - {x: 0, y: 1}
    - {x: 1, y: 1}
    indices: 000000000300000001000000020000000300000000000000
    material: {fileID: 2100000, guid: e04796d3350b7c74ca1ff6379eb5a90f, type: 2}
    materialId: 0
    sourceTextureGUID: c1d6b9db037688940aeff17805937283
    extractRegion: 0
    regionX: 0
    regionY: 0
    regionW: 0
    regionH: 0
    flipped: 0
    complexGeometry: 0
    physicsEngine: 0
    colliderType: 0
    customColliders: []
    colliderVertices: []
    colliderIndicesFwd: 
    colliderIndicesBack: 
    colliderConvex: 0
    colliderSmoothSphereCollisions: 0
    polygonCollider2D: []
    edgeCollider2D: []
    attachPoints: []
  - name: s_0000s_0030_5
    boundsData:
    - {x: .5, y: 0, z: 0}
    - {x: 239, y: 356, z: 0}
    untrimmedBoundsData:
    - {x: .5, y: 0, z: 0}
    - {x: 239, y: 356, z: 0}
    texelSize: {x: 1, y: 1}
    positions:
    - {x: -119, y: -178, z: 0}
    - {x: 120, y: -178, z: 0}
    - {x: -119, y: 178, z: 0}
    - {x: 120, y: 178, z: 0}
    normals: []
    tangents: []
    uvs:
    - {x: .233398929, y: .521484852}
    - {x: .350097179, y: .521484852}
    - {x: .233398929, y: .695312023}
    - {x: .350097179, y: .695312023}
    normalizedUvs:
    - {x: 0, y: 0}
    - {x: 1, y: 0}
    - {x: 0, y: 1}
    - {x: 1, y: 1}
    indices: 000000000300000001000000020000000300000000000000
    material: {fileID: 2100000, guid: e04796d3350b7c74ca1ff6379eb5a90f, type: 2}
    materialId: 0
    sourceTextureGUID: cef6c0f38bd263741873d35e120df513
    extractRegion: 0
    regionX: 0
    regionY: 0
    regionW: 0
    regionH: 0
    flipped: 0
    complexGeometry: 0
    physicsEngine: 0
    colliderType: 0
    customColliders: []
    colliderVertices: []
    colliderIndicesFwd: 
    colliderIndicesBack: 
    colliderConvex: 0
    colliderSmoothSphereCollisions: 0
    polygonCollider2D: []
    edgeCollider2D: []
    attachPoints: []
  - name: s_0000s_0031_8
    boundsData:
    - {x: .5, y: 0, z: 0}
    - {x: 239, y: 356, z: 0}
    untrimmedBoundsData:
    - {x: .5, y: 0, z: 0}
    - {x: 239, y: 356, z: 0}
    texelSize: {x: 1, y: 1}
    positions:
    - {x: -119, y: -178, z: 0}
    - {x: 120, y: -178, z: 0}
    - {x: -119, y: 178, z: 0}
    - {x: 120, y: 178, z: 0}
    normals: []
    tangents: []
    uvs:
    - {x: .233398929, y: .695312977}
    - {x: .350097179, y: .695312977}
    - {x: .233398929, y: .869140148}
    - {x: .350097179, y: .869140148}
    normalizedUvs:
    - {x: 0, y: 0}
    - {x: 1, y: 0}
    - {x: 0, y: 1}
    - {x: 1, y: 1}
    indices: 000000000300000001000000020000000300000000000000
    material: {fileID: 2100000, guid: e04796d3350b7c74ca1ff6379eb5a90f, type: 2}
    materialId: 0
    sourceTextureGUID: d68c3bbb7230d2e4c95a1deb4debfca9
    extractRegion: 0
    regionX: 0
    regionY: 0
    regionW: 0
    regionH: 0
    flipped: 0
    complexGeometry: 0
    physicsEngine: 0
    colliderType: 0
    customColliders: []
    colliderVertices: []
    colliderIndicesFwd: 
    colliderIndicesBack: 
    colliderConvex: 0
    colliderSmoothSphereCollisions: 0
    polygonCollider2D: []
    edgeCollider2D: []
    attachPoints: []
  - name: s_0000s_0023_8
    boundsData:
    - {x: .5, y: 0, z: 0}
    - {x: 239, y: 356, z: 0}
    untrimmedBoundsData:
    - {x: .5, y: 0, z: 0}
    - {x: 239, y: 356, z: 0}
    texelSize: {x: 1, y: 1}
    positions:
    - {x: -119, y: -178, z: 0}
    - {x: 120, y: -178, z: 0}
    - {x: -119, y: 178, z: 0}
    - {x: 120, y: 178, z: 0}
    normals: []
    tangents: []
    uvs:
    - {x: .347656727, y: .869141102}
    - {x: .347656727, y: .985839367}
    - {x: .521483898, y: .869141102}
    - {x: .521483898, y: .985839367}
    normalizedUvs:
    - {x: 0, y: 0}
    - {x: 0, y: 1}
    - {x: 1, y: 0}
    - {x: 1, y: 1}
    indices: 000000000300000001000000020000000300000000000000
    material: {fileID: 2100000, guid: e04796d3350b7c74ca1ff6379eb5a90f, type: 2}
    materialId: 0
    sourceTextureGUID: ec21f21d77ae1a34a863c012deed9ad5
    extractRegion: 0
    regionX: 0
    regionY: 0
    regionW: 0
    regionH: 0
    flipped: 1
    complexGeometry: 0
    physicsEngine: 0
    colliderType: 0
    customColliders: []
    colliderVertices: []
    colliderIndicesFwd: 
    colliderIndicesBack: 
    colliderConvex: 0
    colliderSmoothSphereCollisions: 0
    polygonCollider2D: []
    edgeCollider2D: []
    attachPoints: []
  - name: aada
    boundsData:
    - {x: .5, y: 0, z: 0}
    - {x: 239, y: 356, z: 0}
    untrimmedBoundsData:
    - {x: .5, y: 0, z: 0}
    - {x: 239, y: 356, z: 0}
    texelSize: {x: 1, y: 1}
    positions:
    - {x: -119, y: -178, z: 0}
    - {x: 120, y: -178, z: 0}
    - {x: -119, y: 178, z: 0}
    - {x: 120, y: 178, z: 0}
    normals: []
    tangents: []
    uvs:
    - {x: .521484852, y: .233398929}
    - {x: .521484852, y: .350097179}
    - {x: .695312023, y: .233398929}
    - {x: .695312023, y: .350097179}
    normalizedUvs:
    - {x: 0, y: 0}
    - {x: 0, y: 1}
    - {x: 1, y: 0}
    - {x: 1, y: 1}
    indices: 000000000300000001000000020000000300000000000000
    material: {fileID: 2100000, guid: e04796d3350b7c74ca1ff6379eb5a90f, type: 2}
    materialId: 0
    sourceTextureGUID: 1538715a452d6714a975e37c3db405ee
    extractRegion: 0
    regionX: 0
    regionY: 0
    regionW: 0
    regionH: 0
    flipped: 1
    complexGeometry: 0
    physicsEngine: 0
    colliderType: 0
    customColliders: []
    colliderVertices: []
    colliderIndicesFwd: 
    colliderIndicesBack: 
    colliderConvex: 0
    colliderSmoothSphereCollisions: 0
    polygonCollider2D: []
    edgeCollider2D: []
    attachPoints: []
  - name: "Sinsdfsfsf t\xEDtulo-1"
    boundsData:
    - {x: .5, y: 0, z: 0}
    - {x: 239, y: 356, z: 0}
    untrimmedBoundsData:
    - {x: .5, y: 0, z: 0}
    - {x: 239, y: 356, z: 0}
    texelSize: {x: 1, y: 1}
    positions:
    - {x: -119, y: -178, z: 0}
    - {x: 120, y: -178, z: 0}
    - {x: -119, y: 178, z: 0}
    - {x: 120, y: 178, z: 0}
    normals: []
    tangents: []
    uvs:
    - {x: .350098133, y: .233398929}
    - {x: .466796398, y: .233398929}
    - {x: .350098133, y: .407226086}
    - {x: .466796398, y: .407226086}
    normalizedUvs:
    - {x: 0, y: 0}
    - {x: 1, y: 0}
    - {x: 0, y: 1}
    - {x: 1, y: 1}
    indices: 000000000300000001000000020000000300000000000000
    material: {fileID: 2100000, guid: e04796d3350b7c74ca1ff6379eb5a90f, type: 2}
    materialId: 0
    sourceTextureGUID: a7e6eca59fde3844e84f1cd4abe3cf9e
    extractRegion: 0
    regionX: 0
    regionY: 0
    regionW: 0
    regionH: 0
    flipped: 0
    complexGeometry: 0
    physicsEngine: 0
    colliderType: 0
    customColliders: []
    colliderVertices: []
    colliderIndicesFwd: 
    colliderIndicesBack: 
    colliderConvex: 0
    colliderSmoothSphereCollisions: 0
    polygonCollider2D: []
    edgeCollider2D: []
    attachPoints: []
  premultipliedAlpha: 0
  material: {fileID: 0}
  materials:
  - {fileID: 2100000, guid: e04796d3350b7c74ca1ff6379eb5a90f, type: 2}
  textures:
  - {fileID: 2800000, guid: cf6c1b9967924964694eb0b7c94b66df, type: 3}
  pngTextures: []
  materialPngTextureId: 00000000
  textureFilterMode: 0
  textureMipMaps: 0
  allowMultipleAtlases: 0
  spriteCollectionGUID: ab0280b251eb9ff4eb6c5cf7be363c6b
  spriteCollectionName: 02
  assetName: 
  loadable: 0
  invOrthoSize: 2
  halfTargetHeight: .5
  buildKey: 123760460
  dataGuid: d387c2689c107c04287b8e278ddc984a
  managedSpriteCollection: 0
  hasPlatformData: 0
  spriteCollectionPlatforms: []
  spriteCollectionPlatformGUIDs: []
--- !u!1001 &100100000
Prefab:
  m_ObjectHideFlags: 1
  serializedVersion: 2
  m_Modification:
    m_TransformParent: {fileID: 0}
    m_Modifications: []
    m_RemovedComponents: []
  m_ParentPrefab: {fileID: 0}
  m_RootGameObject: {fileID: 197656}
  m_IsPrefabParent: 1
  m_IsExploded: 1
